1	6337.997623
2	6338.012177
3	6338.019763
4	6338.028845
5	6338.037925
6	6338.045504
7	6338.054606
8	6338.062153
9	6338.071238
10	6338.080407
11	6338.087890
12	6338.096975
13	6338.104548
14	6338.113630
15	6338.122714
16	6338.130291
17	6338.139388
18	6338.146944
19	6338.156030
20	6338.165114
21	6338.172682
22	6338.181764
23	6338.189337
24	6338.198420
25	6338.207505
26	6338.215072
27	6338.224129
28	6338.231730
29	6338.240813
30	6338.249897
31	6338.257464
32	6338.266548
33	6338.274121
34	6338.283204
35	6338.292291
36	6338.299856
37	6338.308940
38	6338.316514
39	6338.325597
40	6338.334680
41	6338.342248
42	6338.351333
43	6338.358904
44	6338.367986
45	6338.377073
46	6338.384640
47	6338.393731
48	6338.401297
49	6338.452490
50	6338.452510
51	6338.452522
52	6338.452533
53	6338.515044
54	6338.524195
55	6338.533211
56	6338.540774
57	6338.639234
58	6338.639253
59	6338.639265
60	6338.701725
61	6338.709257
62	6338.718341
63	6338.725914
64	6338.811552
65	6338.811570
66	6338.811581
67	6338.811592
68	6338.923909
69	6338.932989
70	6338.942074
71	6338.949645
72	6338.997842
73	6338.997860
74	6338.997870
75	6339.036553
76	6339.045603
77	6339.053193
78	6339.062250
79	6339.155074
80	6339.155092
81	6339.155104
82	6339.155115
83	6339.294819
84	6339.302392
85	6339.311478
86	6339.379685
87	6339.393228
88	6339.393245
89	6339.393256
90	6339.505482
91	6339.514531
92	6339.522098
93	6339.531183
94	6339.614296
95	6339.614329
96	6339.614342
97	6339.614353
98	6339.711559
99	6339.719119
100	6339.728257
101	6339.737294
102	6339.828359
103	6339.828377
104	6339.828388
105	6339.879603
106	6339.887142
107	6339.894706
108	6339.903792
109	6340.009469
110	6340.009488
111	6340.009499
112	6340.009510
113	6340.086957
114	6340.094521
115	6340.103605
116	6340.112697
117	6340.207056
118	6340.207074
119	6340.207085
120	6340.258514
121	6340.267562
122	6340.275131
123	6340.284212
124	6340.386858
125	6340.386876
126	6340.386887
127	6340.386898
128	6340.500677
129	6340.508242
130	6340.517326
131	6340.615158
132	6340.615176
133	6340.615187
134	6340.615197
135	6340.655336
136	6340.664386
137	6340.671951
138	6340.681033
139	6340.754108
140	6340.754127
141	6340.754138
142	6340.754149
143	6340.832800
144	6340.840378
145	6340.849457
146	6340.911915
147	6340.924096
148	6340.924119
149	6340.924131
150	6341.039986
151	6341.049035
152	6341.056600
153	6341.065685
154	6341.167648
155	6341.167668
156	6341.167679
157	6341.167690
158	6341.264154
159	6341.271732
160	6341.280814
161	6341.354667
162	6341.354685
163	6341.354697
164	6341.354707
165	6341.449967
166	6341.459017
167	6341.466583
168	6341.475667
169	6341.577644
170	6341.577667
171	6341.577681
172	6341.577692
173	6341.703992
174	6341.711570
175	6341.720652
176	6341.800742
177	6341.800761
178	6341.800772
179	6341.800783
180	6341.928076
181	6341.937126
182	6341.944693
183	6341.953775
184	6342.037349
185	6342.037369
186	6342.037380
187	6342.037391
188	6342.133442
189	6342.141006
190	6342.150090
191	6342.185402
192	6342.237447
193	6342.237464
194	6342.237475
195	6342.244540
196	6342.271038
197	6342.278600
198	6342.287684
199	6342.351409
200	6342.372068
201	6342.372084
202	6342.372095
203	6342.449224
204	6342.456761
205	6342.465842
206	6342.474926
207	6342.540600
208	6342.540617
209	6342.540628
210	6342.540639
211	6342.617049
212	6342.624622
213	6342.633710
214	6342.642799
215	6342.741897
216	6342.741915
217	6342.741927
218	6342.844778
219	6342.853825
220	6342.861392
221	6342.870484
222	6342.917827
223	6342.917845
224	6342.917856
225	6342.917867
226	6342.971671
227	6342.979259
228	6342.988328
229	6343.048548
230	6343.081171
231	6343.081189
232	6343.081200
233	6343.149842
234	6343.158888
235	6343.166455
236	6343.175541
237	6343.245179
238	6343.245196
239	6343.245207
240	6343.245218
241	6343.312869
242	6343.320443
243	6343.329527
244	6343.397037
245	6343.407795
246	6343.407812
247	6343.407823
248	6343.517615
249	6343.525150
250	6343.532723
251	6343.541807
252	6343.582277
253	6343.582295
254	6343.582306
255	6343.582316
256	6343.637050
257	6343.644635
258	6343.653718
259	6343.725715
260	6343.741733
261	6343.741750
262	6343.741761
263	6343.769019
264	6343.776550
265	6343.784124
266	6343.793208
267	6343.863122
268	6343.863140
269	6343.863151
270	6343.863161
271	6343.963764
272	6343.971330
273	6343.980414
274	6343.989498
275	6344.078730
276	6344.078747
277	6344.078758
278	6344.135214
279	6344.142744
280	6344.150391
281	6344.159403
282	6344.231290
283	6344.231307
284	6344.231318
285	6344.231329
286	6344.358307
287	6344.365874
288	6344.374960
289	6344.384048
290	6344.458234
291	6344.458252
292	6344.458263
293	6344.567472
294	6344.576517
295	6344.584085
296	6344.593168
297	6344.652954
298	6344.652972
299	6344.652983
300	6344.652993
301	6344.730187
302	6344.737757
303	6344.746841
304	6344.834179
305	6344.834197
306	6344.834208
307	6344.834218
308	6344.946326
309	6344.955378
310	6344.962942
311	6344.972024
312	6345.047857
313	6345.047875
314	6345.047887
315	6345.047897
316	6345.135553
317	6345.143116
318	6345.152198
319	6345.161342
320	6345.265691
321	6345.265717
322	6345.265729
323	6345.396195
324	6345.405246
325	6345.412809
326	6345.421893
327	6345.465881
328	6345.465900
329	6345.465911
330	6345.465921
331	6345.531547
332	6345.539113
333	6345.548195
334	6345.557284
335	6345.626433
336	6345.626450
337	6345.626461
338	6345.757361
339	6345.766408
340	6345.773975
341	6345.783061
342	6345.875446
343	6345.875464
344	6345.875475
345	6345.875486
346	6345.933082
347	6345.940656
348	6345.949739
349	6346.010293
350	6346.035678
351	6346.035695
352	6346.035706
353	6346.107848
354	6346.115378
355	6346.122952
356	6346.132033
357	6346.231877
358	6346.231895
359	6346.231906
360	6346.231917
361	6346.306666
362	6346.314238
363	6346.323324
364	6346.332407
365	6346.440350
366	6346.440367
367	6346.440378
368	6346.440389
369	6346.546515
370	6346.554084
371	6346.563165
372	6346.586197
373	6346.600469
374	6346.600486
375	6346.600497
376	6346.668554
377	6346.676084
378	6346.685169
379	6346.694252
380	6346.716520
381	6346.716538
382	6346.716548
383	6346.724531
384	6346.740466
385	6346.748041
386	6346.841110
387	6346.841128
388	6346.841139
389	6346.841150
390	6346.972499
391	6346.981582
392	6346.989155
393	6346.998238
394	6347.068491
395	6347.068508
396	6347.068519
397	6347.068529
398	6347.201843
399	6347.210926
400	6347.218493
401	6347.273039
402	6347.273059
403	6347.273070
404	6347.273081
405	6347.313492
406	6347.322618
407	6347.330195
408	6347.339277
409	6347.442114
410	6347.442131
411	6347.442142
412	6347.442153
413	6347.504744
414	6347.513821
415	6347.521390
416	6347.634503
417	6347.634521
418	6347.634532
419	6347.634544
420	6347.723276
421	6347.732322
422	6347.739890
423	6347.748973
424	6347.784749
425	6347.784766
426	6347.784777
427	6347.784787
428	6347.887545
429	6347.896626
430	6347.904196
431	6347.913282
432	6348.019397
433	6348.019417
434	6348.019428
435	6348.147064
436	6348.156110
437	6348.163678
438	6348.172760
439	6348.220030
440	6348.220048
441	6348.220059
442	6348.220070
443	6348.287137
444	6348.294706
445	6348.303791
446	6348.352776
447	6348.352793
448	6348.352805
449	6348.352815
450	6348.485635
451	6348.494681
452	6348.502247
453	6348.511334
454	6348.594754
455	6348.594772
456	6348.594783
457	6348.594794
458	6348.664662
459	6348.672223
460	6348.681308
461	6348.690401
462	6348.712093
463	6348.712110
464	6348.712120
465	6348.732566
466	6348.740107
467	6348.747670
468	6348.803692
469	6348.803709
470	6348.803721
471	6348.803732
472	6348.843549
473	6348.852631
474	6348.860197
475	6348.903320
476	6348.904534
477	6348.904551
478	6348.904562
479	6348.944710
480	6348.962573
481	6348.971656
482	6348.979227
483	6349.030974
484	6349.030991
485	6349.031002
486	6349.068578
487	6349.074599
488	6349.083683
489	6349.091250
490	6349.170885
491	6349.170903
492	6349.170914
493	6349.170925
494	6349.261011
495	6349.270093
496	6349.279183
497	6349.286746
498	6349.363812
499	6349.363830
500	6349.363842
501	6349.494153
502	6349.501682
503	6349.510769
504	6349.518340
505	6349.546681
506	6349.546698
507	6349.546709
508	6349.550130
509	6349.572090
510	6349.581172
511	6349.590259
512	6349.660190
513	6349.660208
514	6349.660220
515	6349.660230
516	6349.788054
517	6349.795620
518	6349.804703
519	6349.905694
520	6349.905730
521	6349.905743
522	6349.905754
523	6349.973314
524	6349.980888
525	6349.989975
526	6349.999056
527	6350.064003
528	6350.064020
529	6350.064031
530	6350.064043
531	6350.141056
532	6350.148628
533	6350.157711
534	6350.165285
535	6350.253031
536	6350.253051
537	6350.253063
538	6350.384802
539	6350.393845
540	6350.401413
541	6350.410497
542	6350.512801
543	6350.512819
544	6350.512830
545	6350.512840
546	6350.593842
547	6350.601417
548	6350.610500
549	6350.724184
550	6350.724202
551	6350.724212
552	6350.724223
553	6350.841884
554	6350.850908
555	6350.858497
556	6350.867582
557	6350.972995
558	6350.973014
559	6350.973025
560	6350.973035
561	6351.086405
562	6351.093978
563	6351.103063
564	6351.191127
565	6351.205465
566	6351.205482
567	6351.205492
568	6351.324989
569	6351.332666
570	6351.340234
571	6351.349317
572	6351.402169
573	6351.402187
574	6351.402198
575	6351.402208
576	6351.528308
577	6351.535881
578	6351.544964
579	6351.574982
580	6351.597405
581	6351.597422
582	6351.597433
583	6351.652555
584	6351.660086
585	6351.667660
586	6351.676743
587	6351.775653
588	6351.775671
589	6351.775683
590	6351.775693
591	6351.876343
592	6351.883911
593	6351.892992
594	6351.902078
595	6351.966661
596	6351.966679
597	6351.966691
598	6351.988549
599	6351.997596
600	6352.005165
601	6352.014257
602	6352.122663
603	6352.122680
604	6352.122691
605	6352.122702
606	6352.258561
607	6352.266135
608	6352.275219
609	6352.324643
610	6352.324660
611	6352.324671
612	6352.324682
613	6352.445884
614	6352.454929
615	6352.462491
616	6352.471577
617	6352.533535
618	6352.533553
619	6352.533564
620	6352.533574
621	6352.635549
622	6352.643115
623	6352.652197
624	6352.661289
625	6352.767129
626	6352.767146
627	6352.767157
628	6352.874363
629	6352.883412
630	6352.890980
631	6352.900062
632	6352.981952
633	6352.981970
634	6352.981981
635	6352.981991
636	6353.121027
637	6353.128603
638	6353.137685
639	6353.187311
640	6353.187328
641	6353.187340
642	6353.187350
643	6353.266881
644	6353.275924
645	6353.283494
646	6353.292576
647	6353.375905
648	6353.375923
649	6353.375934
650	6353.375944
651	6353.515301
652	6353.522868
653	6353.531953
654	6353.561169
655	6353.637162
656	6353.637179
657	6353.637190
658	6353.771560
659	6353.779083
660	6353.786652
661	6353.795738
662	6353.901695
663	6353.901712
664	6353.901724
665	6353.901734
666	6354.018280
667	6354.025844
668	6354.034931
669	6354.044016
670	6354.144563
671	6354.144580
672	6354.144591
673	6354.252822
674	6354.260353
675	6354.267925
676	6354.277010
677	6354.386308
678	6354.386326
679	6354.386337
680	6354.386347
681	6354.517148
682	6354.524711
683	6354.533797
684	6354.542887
685	6354.600320
686	6354.600337
687	6354.600348
688	6354.628549
689	6354.637597
690	6354.645167
691	6354.654254
692	6354.705225
693	6354.705243
694	6354.705254
695	6354.705264
696	6354.833812
697	6354.841385
698	6354.850467
699	6354.933269
700	6354.955343
701	6354.955360
702	6354.955371
703	6355.032206
704	6355.039748
705	6355.047310
706	6355.056393
707	6355.127645
708	6355.127671
709	6355.127683
710	6355.127694
711	6355.191120
712	6355.198679
713	6355.207765
714	6355.277910
715	6355.277928
716	6355.277941
717	6355.277951
718	6355.304553
719	6355.313599
720	6355.321168
721	6355.330253
722	6355.415785
723	6355.415802
724	6355.415813
725	6355.415824
726	6355.536524
727	6355.544089
728	6355.553172
729	6355.664991
730	6355.665009
731	6355.665020
732	6355.665030
733	6355.787994
734	6355.797040
735	6355.804619
736	6355.813699
737	6355.890124
738	6355.890141
739	6355.890152
740	6355.890163
741	6355.969080
742	6355.976644
743	6355.985728
744	6356.075948
745	6356.075965
746	6356.075977
747	6356.075987
748	6356.147711
749	6356.156752
750	6356.164331
751	6356.173411
752	6356.270526
753	6356.270543
754	6356.270554
755	6356.270565
756	6356.345469
757	6356.353035
758	6356.362119
759	6356.449715
760	6356.449733
761	6356.449744
762	6356.449755
763	6356.583990
764	6356.593073
765	6356.600644
766	6356.609730
767	6356.669805
768	6356.669823
769	6356.669834
770	6356.669844
771	6356.725054
772	6356.732628
773	6356.741712
774	6356.830215
775	6356.830232
776	6356.830258
777	6356.830271
778	6356.943866
779	6356.952909
780	6356.960476
781	6356.969561
782	6357.072941
783	6357.072958
784	6357.072969
785	6357.072980
786	6357.141118
787	6357.150203
788	6357.157776
789	6357.264281
790	6357.264299
791	6357.264310
792	6357.264321
793	6357.388876
794	6357.397922
795	6357.405489
796	6357.414578
797	6357.453748
798	6357.453766
799	6357.453777
800	6357.453788
801	6357.538463
802	6357.547547
803	6357.555120
804	6357.636731
805	6357.636748
806	6357.636760
807	6357.636770
808	6357.767781
809	6357.776826
810	6357.784393
811	6357.793478
812	6357.903225
813	6357.903242
814	6357.903254
815	6357.903264
816	6357.975487
817	6357.984571
818	6357.992145
819	6358.055542
820	6358.055561
821	6358.055572
822	6358.055583
823	6358.118120
824	6358.127167
825	6358.134736
826	6358.143820
827	6358.223975
828	6358.223992
829	6358.224004
830	6358.224014
831	6358.338506
832	6358.347593
833	6358.355166
834	6358.402490
835	6358.441986
836	6358.442002
837	6358.442014
838	6358.488732
839	6358.496269
840	6358.503835
841	6358.512918
842	6358.617101
843	6358.617118
844	6358.617129
845	6358.617139
846	6358.679544
847	6358.688626
848	6358.696195
849	6358.705282
850	6358.794185
851	6358.794203
852	6358.794214
853	6358.852551
854	6358.860082
855	6358.867658
856	6358.876740
857	6358.946080
858	6358.946097
859	6358.946109
860	6358.946119
861	6359.059932
862	6359.067500
863	6359.076582
864	6359.085671
865	6359.184514
866	6359.184531
867	6359.184542
868	6359.279116
869	6359.288163
870	6359.295731
871	6359.304813
872	6359.353835
873	6359.353854
874	6359.353866
875	6359.353876
876	6359.475362
877	6359.482929
878	6359.492013
879	6359.602714
880	6359.602731
881	6359.602743
882	6359.602753
883	6359.736481
884	6359.745528
885	6359.753097
886	6359.762180
887	6359.870210
888	6359.870229
889	6359.870240
890	6359.870250
891	6360.009060
892	6360.016586
893	6360.025717
894	6360.095606
895	6360.135009
896	6360.135033
897	6360.135046
898	6360.240569
899	6360.248092
900	6360.255667
901	6360.264754
902	6360.334883
903	6360.334901
904	6360.334912
905	6360.334922
906	6360.366024
907	6360.373596
908	6360.382680
909	6360.391765
910	6360.427433
911	6360.427452
912	6360.427463
913	6360.441220
914	6360.506582
915	6360.514146
916	6360.523232
917	6360.555351
918	6360.577397
919	6360.577413
920	6360.577424
921	6360.636550
922	6360.644081
923	6360.653167
924	6360.662249
925	6360.683949
926	6360.683966
927	6360.683977
928	6360.692529
929	6360.709938
930	6360.717513
931	6360.813614
932	6360.813633
933	6360.813645
934	6360.813655
935	6360.908263
936	6360.917307
937	6360.924868
938	6360.933951
939	6360.948401
940	6360.948417
941	6360.956664
942	6360.971075
943	6360.978607
944	6361.010343
945	6361.010361
946	6361.010372
947	6361.010381
948	6361.032458
949	6361.041521
950	6361.049114
951	6361.117454
952	6361.117475
953	6361.117487
954	6361.117497
955	6361.203997
956	6361.213074
957	6361.220641
958	6361.229724
959	6361.327519
960	6361.327538
961	6361.327549
962	6361.327559
963	6361.403407
964	6361.412488
965	6361.420056
966	6361.454723
967	6361.454741
968	6361.454752
969	6361.454762
970	6361.476839
971	6361.485923
972	6361.493496
973	6361.586203
974	6361.586223
975	6361.586235
976	6361.586246
977	6361.698838
978	6361.707883
979	6361.716966
980	6361.724531
981	6361.777114
982	6361.777133
983	6361.777144
984	6361.777155
985	6361.838912
986	6361.847996
987	6361.855569
988	6361.964017
989	6361.964037
990	6361.964049
991	6361.964060
992	6362.013080
993	6362.022124
994	6362.031209
995	6362.038777
996	6362.086538
997	6362.086556
998	6362.086567
999	6362.086578
1000	6362.185180
1001	6362.194260
1002	6362.203345
1003	6362.224099
1004	6362.286547
1005	6362.286566
1006	6362.286578
1007	6362.417688
1008	6362.425213
1009	6362.434297
1010	6362.441870
1011	6362.544084
1012	6362.544111
1013	6362.544122
1014	6362.544133
1015	6362.681001
1016	6362.690088
1017	6362.699168
1018	6362.706739
1019	6362.781129
1020	6362.781147
1021	6362.781158
1022	6362.907359
1023	6362.916405
1024	6362.923973
1025	6362.933055
1026	6363.011825
1027	6363.011843
1028	6363.011855
1029	6363.011866
1030	6363.147587
1031	6363.155164
1032	6363.164254
1033	6363.214747
1034	6363.245335
1035	6363.245352
1036	6363.245363
1037	6363.346277
1038	6363.355330
1039	6363.362893
1040	6363.371977
1041	6363.474110
1042	6363.474128
1043	6363.474139
1044	6363.474150
1045	6363.607176
1046	6363.614751
1047	6363.623832
1048	6363.640812
1049	6363.687807
1050	6363.687823
1051	6363.687834
1052	6363.720553
1053	6363.728082
1054	6363.735656
1055	6363.744740
1056	6363.833070
1057	6363.833088
1058	6363.833099
1059	6363.833110
1060	6363.909087
1061	6363.916662
1062	6363.925743
1063	6363.934827
1064	6364.027709
1065	6364.027727
1066	6364.027738
1067	6364.035899
1068	6364.098574
1069	6364.106140
1070	6364.115228
1071	6364.209660
1072	6364.209677
1073	6364.209688
1074	6364.209699
1075	6364.288617
1076	6364.296187
1077	6364.305275
1078	6364.314358
1079	6364.388396
1080	6364.388413
1081	6364.388424
1082	6364.388434
1083	6364.477468
1084	6364.485038
1085	6364.494121
1086	6364.514289
1087	6364.525923
1088	6364.525940
1089	6364.525950
1090	6364.547903
1091	6364.553920
1092	6364.563007
1093	6364.660397
1094	6364.660414
1095	6364.660425
1096	6364.660435
1097	6364.761444
1098	6364.770528
1099	6364.778101
1100	6364.787187
1101	6364.868268
1102	6364.868286
1103	6364.868296
1104	6364.868307
1105	6364.998654
1106	6365.006221
1107	6365.015309
1108	6365.114601
1109	6365.114619
1110	6365.114630
1111	6365.114640
1112	6365.241493
1113	6365.250541
1114	6365.258109
1115	6365.267195
1116	6365.350724
1117	6365.350743
1118	6365.350754
1119	6365.350765
1120	6365.399438
1121	6365.407005
1122	6365.416088
1123	6365.510861
1124	6365.510879
1125	6365.510890
1126	6365.510900
1127	6365.550965
1128	6365.560007
1129	6365.567582
1130	6365.576666
1131	6365.665909
1132	6365.665927
1133	6365.665938
1134	6365.665948
1135	6365.773967
1136	6365.781534
1137	6365.790618
1138	6365.898819
1139	6365.898836
1140	6365.898848
1141	6365.898857
1142	6365.995598
1143	6366.004684
1144	6366.012255
1145	6366.021339
1146	6366.125326
1147	6366.125343
1148	6366.125354
1149	6366.125365
1150	6366.213063
1151	6366.220634
1152	6366.229721
1153	6366.251236
1154	6366.253781
1155	6366.253796
1156	6366.261508
1157	6366.274421
1158	6366.283473
1159	6366.356778
1160	6366.356796
1161	6366.356808
1162	6366.356818
1163	6366.458034
1164	6366.465611
1165	6366.474691
1166	6366.483778
1167	6366.568028
1168	6366.568047
1169	6366.568058
1170	6366.568070
1171	6366.597053
1172	6366.604630
1173	6366.613711
1174	6366.621282
1175	6366.701910
1176	6366.701929
1177	6366.701940
1178	6366.818983
1179	6366.828028
1180	6366.835598
1181	6366.844680
1182	6366.953386
1183	6366.953405
1184	6366.953416
1185	6366.953427
1186	6367.015757
1187	6367.023329
1188	6367.032411
1189	6367.050899
1190	6367.070673
1191	6367.070691
1192	6367.070701
1193	6367.132554
1194	6367.140088
1195	6367.147658
1196	6367.156742
1197	6367.230861
1198	6367.230879
1199	6367.230890
1200	6367.230901
1201	6367.345751
1202	6367.353323
1203	6367.362408
1204	6367.371496
1205	6367.445161
1206	6367.445178
1207	6367.445189
1208	6367.456545
1209	6367.483045
1210	6367.490610
1211	6367.499694
1212	6367.612128
1213	6367.612146
1214	6367.612157
1215	6367.612168
1216	6367.727859
1217	6367.735431
1218	6367.744514
1219	6367.753597
1220	6367.845669
1221	6367.845686
1222	6367.845697
1223	6367.845708
1224	6367.970402
1225	6367.977968
1226	6367.987054
1227	6368.014317
1228	6368.096086
1229	6368.096104
1230	6368.096115
1231	6368.142879
1232	6368.150405
1233	6368.159494
1234	6368.168575
1235	6368.200695
1236	6368.200712
1237	6368.200723
1238	6368.200733
1239	6368.251538
1240	6368.259119
1241	6368.268202
1242	6368.275775
1243	6368.332666
1244	6368.332683
1245	6368.332694
1246	6368.364552
1247	6368.373599
1248	6368.381167
1249	6368.390252
1250	6368.486798
1251	6368.486816
1252	6368.486827
1253	6368.486838
1254	6368.571548
1255	6368.579121
1256	6368.588195
1257	6368.597284
1258	6368.623487
1259	6368.623504
1260	6368.623515
1261	6368.684554
1262	6368.693602
1263	6368.701170
1264	6368.710253
1265	6368.786552
1266	6368.786571
1267	6368.786582
1268	6368.786592
1269	6368.920987
1270	6368.928560
1271	6368.937644
1272	6369.024691
1273	6369.025032
1274	6369.025048
1275	6369.025059
1276	6369.120551
1277	6369.128082
1278	6369.135657
1279	6369.144740
1280	6369.201164
1281	6369.201181
1282	6369.201192
1283	6369.201203
1284	6369.320062
1285	6369.327627
1286	6369.336710
1287	6369.345803
1288	6369.419318
1289	6369.419336
1290	6369.419346
1291	6369.552081
1292	6369.561130
1293	6369.568698
1294	6369.577780
1295	6369.663704
1296	6369.663726
1297	6369.663737
1298	6369.663748
1299	6369.795599
1300	6369.803169
1301	6369.812252
1302	6369.828460
1303	6369.831892
1304	6369.834958
1305	6369.842531
1306	6369.853915
1307	6369.861455
1308	6369.898789
1309	6369.898831
1310	6369.898843
1311	6369.898854
1312	6369.947712
1313	6369.955275
1314	6369.964358
1315	6370.017070
1316	6370.040613
1317	6370.040630
1318	6370.040641
1319	6370.121863
1320	6370.129403
1321	6370.138480
1322	6370.147566
1323	6370.199161
1324	6370.199178
1325	6370.199189
1326	6370.199200
1327	6370.321852
1328	6370.329421
1329	6370.338500
1330	6370.355936
1331	6370.432732
1332	6370.432749
1333	6370.432759
1334	6370.493273
1335	6370.500803
1336	6370.509888
1337	6370.518974
1338	6370.589490
1339	6370.589507
1340	6370.589518
1341	6370.589529
1342	6370.623544
1343	6370.631110
1344	6370.640194
1345	6370.647767
1346	6370.711424
1347	6370.711442
1348	6370.711452
1349	6370.774135
1350	6370.781663
1351	6370.789245
1352	6370.798321
1353	6370.891591
1354	6370.891609
1355	6370.891620
1356	6370.891630
1357	6370.966539
1358	6370.974111
1359	6370.983197
1360	6370.992280
1361	6371.072226
1362	6371.072243
1363	6371.072254
1364	6371.123984
1365	6371.131515
1366	6371.139088
1367	6371.148171
1368	6371.223713
1369	6371.223749
1370	6371.223761
1371	6371.223773
1372	6371.345433
1373	6371.352996
1374	6371.362079
1375	6371.371163
1376	6371.435859
1377	6371.435876
1378	6371.435887
1379	6371.435897
1380	6371.482572
1381	6371.490141
1382	6371.499224
1383	6371.529187
1384	6371.590294
1385	6371.590312
1386	6371.590324
1387	6371.610772
1388	6371.618300
1389	6371.627386
1390	6371.636468
1391	6371.732005
1392	6371.732025
1393	6371.732036
1394	6371.732046
1395	6371.803416
1396	6371.810990
1397	6371.820073
1398	6371.827646
1399	6371.886536
1400	6371.886553
1401	6371.886564
1402	6371.916552
1403	6371.925598
1404	6371.933167
1405	6371.942251
1406	6372.008308
1407	6372.008327
1408	6372.008338
1409	6372.008349
1410	6372.100447
1411	6372.108025
1412	6372.117103
1413	6372.175567
1414	6372.213349
1415	6372.213366
1416	6372.213377
1417	6372.289455
1418	6372.296988
1419	6372.304557
1420	6372.313639
1421	6372.387259
1422	6372.387277
1423	6372.387288
1424	6372.387298
1425	6372.477208
1426	6372.484781
1427	6372.493865
1428	6372.565321
1429	6372.565339
1430	6372.565350
1431	6372.565360
1432	6372.660859
1433	6372.669906
1434	6372.677474
1435	6372.686558
1436	6372.789403
1437	6372.789423
1438	6372.789434
1439	6372.789445
1440	6372.922069
1441	6372.929645
1442	6372.938725
1443	6373.016509
1444	6373.016531
1445	6373.016543
1446	6373.016554
1447	6373.131122
1448	6373.140166
1449	6373.147730
1450	6373.156813
1451	6373.264579
1452	6373.264609
1453	6373.264621
1454	6373.264633
1455	6373.332427
1456	6373.340002
1457	6373.349084
1458	6373.461060
1459	6373.461086
1460	6373.461098
1461	6373.461110
1462	6373.548351
1463	6373.557399
1464	6373.564967
1465	6373.574049
1466	6373.668853
1467	6373.668871
1468	6373.668882
1469	6373.668892
1470	6373.794643
1471	6373.802215
1472	6373.811301
1473	6373.870277
1474	6373.870294
1475	6373.870306
1476	6373.870316
1477	6373.951455
1478	6373.960500
1479	6373.968069
1480	6373.977152
1481	6374.055040
1482	6374.055057
1483	6374.055068
1484	6374.055078
1485	6374.123547
1486	6374.131113
1487	6374.140198
1488	6374.149284
1489	6374.241315
1490	6374.241357
1491	6374.241369
1492	6374.372493
1493	6374.381519
1494	6374.389087
1495	6374.398170
1496	6374.489056
1497	6374.489077
1498	6374.489088
1499	6374.489098
1500	6374.618729
1501	6374.626294
1502	6374.635379
1503	6374.664469
1504	6374.719425
1505	6374.719444
1506	6374.719455
1507	6374.744554
1508	6374.752082
1509	6374.759659
1510	6374.768740
1511	6374.859127
1512	6374.859202
1513	6374.859216
1514	6374.859230
1515	6374.899165
1516	6374.906736
1517	6374.915825
1518	6374.924909
1519	6374.996814
1520	6374.996832
1521	6374.996842
1522	6375.107801
1523	6375.115335
1524	6375.122902
1525	6375.131985
1526	6375.177974
1527	6375.177992
1528	6375.178003
1529	6375.178013
1530	6375.242027
1531	6375.249598
1532	6375.258684
1533	6375.267767
1534	6375.312816
1535	6375.312833
1536	6375.312844
1537	6375.442166
1538	6375.449693
1539	6375.457268
1540	6375.466352
1541	6375.544828
1542	6375.544868
1543	6375.544881
1544	6375.544893
1545	6375.618066
1546	6375.625630
1547	6375.634711
1548	6375.643795
1549	6375.749640
1550	6375.749683
1551	6375.749696
1552	6375.789584
1553	6375.854593
1554	6375.862155
1555	6375.871241
1556	6375.982400
1557	6375.982429
1558	6375.982441
1559	6375.982452
1560	6376.078814
1561	6376.086373
1562	6376.095458
1563	6376.104546
1564	6376.188675
1565	6376.188706
1566	6376.188718
1567	6376.188729
1568	6376.257371
1569	6376.264971
1570	6376.274054
1571	6376.315118
1572	6376.315141
1573	6376.315153
1574	6376.315164
1575	6376.439768
1576	6376.447328
1577	6376.456412
1578	6376.465500
1579	6376.565443
1580	6376.565464
1581	6376.565475
1582	6376.565486
1583	6376.683596
1584	6376.691162
1585	6376.700244
1586	6376.745470
1587	6376.786421
1588	6376.786438
1589	6376.786449
1590	6376.875454
1591	6376.883026
1592	6376.892110
1593	6376.901193
1594	6376.959616
1595	6376.959635
1596	6376.959646
1597	6376.959656
1598	6377.066002
1599	6377.073566
1600	6377.082650
1601	6377.169193
1602	6377.173207
1603	6377.173223
1604	6377.173234
1605	6377.272554
1606	6377.280083
1607	6377.289168
1608	6377.298253
1609	6377.387254
1610	6377.387272
1611	6377.387284
1612	6377.387294
1613	6377.472824
1614	6377.480388
1615	6377.489475
1616	6377.497044
1617	6377.538214
1618	6377.538231
1619	6377.538242
1620	6377.538698
1621	6377.602569
1622	6377.610136
1623	6377.619223
1624	6377.663464
1625	6377.663481
1626	6377.663492
1627	6377.663502
1628	6377.765346
1629	6377.772915
1630	6377.781999
1631	6377.791086
1632	6377.895609
1633	6377.895626
1634	6377.895638
1635	6377.895648
1636	6378.010978
1637	6378.018541
1638	6378.027626
1639	6378.090257
1640	6378.090275
1641	6378.090286
1642	6378.090297
1643	6378.225523
1644	6378.233095
1645	6378.242181
1646	6378.251265
1647	6378.348606
1648	6378.348624
1649	6378.348634
1650	6378.348645
1651	6378.449162
1652	6378.456736
1653	6378.465822
1654	6378.473392
1655	6378.560548
1656	6378.560580
1657	6378.560592
1658	6378.620556
1659	6378.628084
1660	6378.635660
1661	6378.644743
1662	6378.731974
1663	6378.731992
1664	6378.732003
1665	6378.732013
1666	6378.758025
1667	6378.765604
1668	6378.774683
1669	6378.783767
1670	6378.850643
1671	6378.850661
1672	6378.850672
1673	6378.970942
1674	6378.978470
1675	6378.986043
1676	6378.995129
1677	6379.082039
1678	6379.082057
1679	6379.082068
1680	6379.082078
1681	6379.110024
1682	6379.117598
1683	6379.126681
1684	6379.135766
1685	6379.191059
1686	6379.191076
1687	6379.191087
1688	6379.245183
1689	6379.298964
1690	6379.306528
1691	6379.315616
1692	6379.365176
1693	6379.398369
1694	6379.398385
1695	6379.398396
1696	6379.429054
1697	6379.436588
1698	6379.445672
1699	6379.454758
1700	6379.550824
1701	6379.550842
1702	6379.550853
1703	6379.550863
1704	6379.657979
1705	6379.665557
1706	6379.674636
1707	6379.682207
1708	6379.757150
1709	6379.757167
1710	6379.757178
1711	6379.818537
1712	6379.826066
1713	6379.833640
1714	6379.842724
1715	6379.912885
1716	6379.912903
1717	6379.912914
1718	6379.912924
1719	6380.022890
1720	6380.030454
1721	6380.039543
1722	6380.048627
1723	6380.111494
1724	6380.111511
1725	6380.111522
1726	6380.132550
1727	6380.141599
1728	6380.149166
1729	6380.158249
1730	6380.227871
1731	6380.227889
1732	6380.227900
1733	6380.227911
1734	6380.337625
1735	6380.345199
1736	6380.354282
1737	6380.447906
1738	6380.447923
1739	6380.447934
1740	6380.447944
1741	6380.552627
1742	6380.561673
1743	6380.569242
1744	6380.578325
1745	6380.687883
1746	6380.687904
1747	6380.687916
1748	6380.687926
1749	6380.808034
1750	6380.815613
1751	6380.824691
1752	6380.857884
1753	6380.896741
1754	6380.896758
1755	6380.896769
1756	6380.936553
1757	6380.944084
1758	6380.951659
1759	6380.960742
1760	6381.008084
1761	6381.008102
1762	6381.008112
1763	6381.008123
1764	6381.139184
1765	6381.146750
1766	6381.155833
1767	6381.164919
1768	6381.260846
1769	6381.260864
1770	6381.260875
1771	6381.366680
1772	6381.374209
1773	6381.381783
1774	6381.390868
1775	6381.416766
1776	6381.416783
1777	6381.416794
1778	6381.421148
1779	6381.441587
1780	6381.449153
1781	6381.458236
1782	6381.508164
1783	6381.508181
1784	6381.508192
1785	6381.508202
1786	6381.570574
1787	6381.579658
1788	6381.587225
1789	6381.698473
1790	6381.698491
1791	6381.698502
1792	6381.698513
1793	6381.746777
1794	6381.755824
1795	6381.763391
1796	6381.772475
1797	6381.866875
1798	6381.866892
1799	6381.866903
1800	6381.866913
1801	6381.955933
1802	6381.965015
1803	6381.972587
1804	6382.021015
1805	6382.021032
1806	6382.021043
1807	6382.021053
1808	6382.113862
1809	6382.121395
1810	6382.128968
1811	6382.138052
1812	6382.192779
1813	6382.192796
1814	6382.192807
1815	6382.192818
1816	6382.214733
1817	6382.223813
1818	6382.231384
1819	6382.240475
1820	6382.326446
1821	6382.326463
1822	6382.326474
1823	6382.390883
1824	6382.398410
1825	6382.405984
1826	6382.415074
1827	6382.497659
1828	6382.497678
1829	6382.497689
1830	6382.497700
1831	6382.585754
1832	6382.593320
1833	6382.602403
1834	6382.611491
1835	6382.703630
1836	6382.703648
1837	6382.703659
1838	6382.811490
1839	6382.820535
1840	6382.828102
1841	6382.837186
1842	6382.896773
1843	6382.896791
1844	6382.896802
1845	6382.896812
1846	6383.029024
1847	6383.036592
1848	6383.045675
1849	6383.159855
1850	6383.159873
1851	6383.159884
1852	6383.159895
1853	6383.287481
1854	6383.296518
1855	6383.304086
1856	6383.313169
1857	6383.367081
1858	6383.367098
1859	6383.367109
1860	6383.367120
1861	6383.439171
1862	6383.446742
1863	6383.455827
1864	6383.481123
1865	6383.487246
1866	6383.487263
1867	6383.487274
1868	6383.509608
1869	6383.517148
1870	6383.524713
1871	6383.544308
1872	6383.544325
1873	6383.547426
1874	6383.556510
1875	6383.564942
1876	6383.573989
1877	6383.654381
1878	6383.654419
1879	6383.654432
1880	6383.679984
1881	6383.742623
1882	6383.750173
1883	6383.759258
1884	6383.862264
1885	6383.862283
1886	6383.862295
1887	6383.862305
1888	6383.937764
1889	6383.946785
1890	6383.954352
1891	6383.963437
1892	6384.043819
1893	6384.043864
1894	6384.043879
1895	6384.043891
1896	6384.068835
1897	6384.076347
1898	6384.085478
1899	6384.136659
1900	6384.139897
1901	6384.139918
1902	6384.139931
1903	6384.229034
1904	6384.238049
1905	6384.245615
1906	6384.254697
1907	6384.344948
1908	6384.344993
1909	6384.345007
1910	6384.345019
1911	6384.466421
1912	6384.473973
1913	6384.483060
1914	6384.571014
1915	6384.588152
1916	6384.588188
1917	6384.588201
1918	6384.716406
1919	6384.725426
1920	6384.732992
1921	6384.742078
1922	6384.791901
1923	6384.791945
1924	6384.791959
1925	6384.791973
1926	6384.847456
1927	6384.856524
1928	6384.864090
1929	6384.890017
1930	6384.936318
1931	6384.936362
1932	6384.936375
1933	6384.956818
1934	6384.964326
1935	6384.971897
1936	6384.980981
1937	6385.045202
1938	6385.045247
1939	6385.045260
1940	6385.045273
1941	6385.167750
1942	6385.175302
1943	6385.184382
1944	6385.193470
1945	6385.244247
1946	6385.244291
1947	6385.244305
1948	6385.280625
1949	6385.289650
1950	6385.297211
1951	6385.306296
1952	6385.331645
1953	6385.331686
1954	6385.331697
1955	6385.336573
1956	6385.355602
1957	6385.363161
1958	6385.388725
1959	6385.444400
1960	6385.444444
1961	6385.444458
1962	6385.468609
1963	6385.476112
1964	6385.485195
1965	6385.492768
1966	6385.595873
1967	6385.595919
1968	6385.595932
1969	6385.595945
1970	6385.654387
1971	6385.663470
1972	6385.671032
1973	6385.680114
1974	6385.744835
1975	6385.744856
1976	6385.744867
1977	6385.765312
1978	6385.772843
1979	6385.780417
1980	6385.789505
1981	6385.879531
1982	6385.879555
1983	6385.879567
1984	6385.879578
1985	6385.958092
1986	6385.965615
1987	6385.974742
1988	6385.983829
1989	6386.077450
1990	6386.077491
1991	6386.077504
1992	6386.128605
1993	6386.136119
1994	6386.143695
1995	6386.152776
1996	6386.262009
1997	6386.262027
1998	6386.262038
1999	6386.262049
2000	6386.323077
2001	6386.330637
2002	6386.339729
2003	6386.348815
2004	6386.431239
2005	6386.431257
2006	6386.431267
2007	6386.496546
2008	6386.504077
2009	6386.511659
2010	6386.520739
2011	6386.600223
2012	6386.600241
2013	6386.600253
2014	6386.600263
2015	6386.708462
2016	6386.716028
2017	6386.725110
2018	6386.734200
2019	6386.763297
2020	6386.763314
2021	6386.763325
2022	6386.820553
2023	6386.829600
2024	6386.837168
2025	6386.846252
2026	6386.874338
2027	6386.874356
2028	6386.874367
2029	6386.876532
2030	6386.898482
2031	6386.906058
2032	6386.915145
2033	6386.968505
2034	6386.968522
2035	6386.968534
2036	6386.968544
2037	6387.028418
2038	6387.037502
2039	6387.045074
2040	6387.052642
2041	6387.061550
2042	6387.067783
2043	6387.076869
2044	6387.102928
2045	6387.102945
2046	6387.180032
2047	6387.180049
2048	6387.180060
2049	6387.279959
2050	6387.287491
2051	6387.295065
2052	6387.304151
2053	6387.356078
2054	6387.356096
2055	6387.356107
2056	6387.356117
2057	6387.402026
2058	6387.411113
2059	6387.418684
2060	6387.427772
2061	6387.516579
2062	6387.516597
2063	6387.516608
2064	6387.584850
2065	6387.592381
2066	6387.599953
2067	6387.609038
2068	6387.657414
2069	6387.657432
2070	6387.657443
2071	6387.657453
2072	6387.763690
2073	6387.771274
2074	6387.780357
2075	6387.789449
2076	6387.866802
2077	6387.866821
2078	6387.866832
2079	6387.965763
2080	6387.974811
2081	6387.982378
2082	6387.991464
2083	6388.038473
2084	6388.038493
2085	6388.038505
2086	6388.038515
2087	6388.095546
2088	6388.103113
2089	6388.112195
2090	6388.121283
2091	6388.145075
2092	6388.145092
2093	6388.145103
2094	6388.167628
2095	6388.176654
2096	6388.184244
2097	6388.239531
2098	6388.239549
2099	6388.239560
2100	6388.239571
2101	6388.370369
2102	6388.379400
2103	6388.386963
2104	6388.396046
2105	6388.432029
2106	6388.432046
2107	6388.432058
2108	6388.432068
2109	6388.567959
2110	6388.577042
2111	6388.584615
2112	6388.631625
2113	6388.679751
2114	6388.679768
2115	6388.679780
2116	6388.728552
2117	6388.736083
2118	6388.743658
2119	6388.752740
2120	6388.835252
2121	6388.835271
2122	6388.835282
2123	6388.835293
2124	6388.905775
2125	6388.914859
2126	6388.922424
2127	6388.931514
2128	6389.028214
2129	6389.028233
2130	6389.028244
2131	6389.089760
2132	6389.098807
2133	6389.106375
2134	6389.115462
2135	6389.199127
2136	6389.199145
2137	6389.199156
2138	6389.199167
2139	6389.328809
2140	6389.336378
2141	6389.345462
2142	6389.404793
2143	6389.404811
2144	6389.404822
2145	6389.404832
2146	6389.472698
2147	6389.481744
2148	6389.489314
2149	6389.498395
2150	6389.556031
2151	6389.556049
2152	6389.556060
2153	6389.556070
2154	6389.693171
2155	6389.700744
2156	6389.709828
2157	6389.780595
2158	6389.809557
2159	6389.809573
2160	6389.809584
2161	6389.896550
2162	6389.904083
2163	6389.911655
2164	6389.920738
2165	6389.988847
2166	6389.988865
2167	6389.988876
2168	6389.988887
2169	6390.116748
2170	6390.124312
2171	6390.133395
2172	6390.142482
2173	6390.244007
2174	6390.244025
2175	6390.244036
2176	6390.287671
2177	6390.296716
2178	6390.304289
2179	6390.313368
2180	6390.386822
2181	6390.386840
2182	6390.386851
2183	6390.386861
2184	6390.442716
2185	6390.450289
2186	6390.459375
2187	6390.478615
2188	6390.566488
2189	6390.566505
2190	6390.566516
2191	6390.697939
2192	6390.705472
2193	6390.713045
2194	6390.722128
2195	6390.817649
2196	6390.817667
2197	6390.817678
2198	6390.817688
2199	6390.916041
2200	6390.923608
2201	6390.932690
2202	6390.941783
2203	6390.974819
2204	6390.974836
2205	6390.974847
2206	6391.028549
2207	6391.037598
2208	6391.045166
2209	6391.054255
2210	6391.145568
2211	6391.145587
2212	6391.145598
2213	6391.145608
2214	6391.189063
2215	6391.196637
2216	6391.205722
2217	6391.275998
2218	6391.286345
2219	6391.286362
2220	6391.286373
2221	6391.378307
2222	6391.387357
2223	6391.394925
2224	6391.404008
2225	6391.461629
2226	6391.461647
2227	6391.461658
2228	6391.461669
2229	6391.588779
2230	6391.596351
2231	6391.605438
2232	6391.668562
2233	6391.672762
2234	6391.672779
2235	6391.672813
2236	6391.693243
2237	6391.702290
2238	6391.709858
2239	6391.718944
2240	6391.732892
2241	6391.732908
2242	6391.741656
2243	6391.749223
2244	6391.759061
2245	6391.869558
2246	6391.869576
2247	6391.869587
2248	6391.869598
2249	6391.977287
2250	6391.984860
2251	6391.993944
2252	6392.003029
2253	6392.082114
2254	6392.082131
2255	6392.082142
2256	6392.082152
2257	6392.193162
2258	6392.200727
2259	6392.209810
2260	6392.319195
2261	6392.319214
2262	6392.319225
2263	6392.319235
2264	6392.432508
2265	6392.440083
2266	6392.449162
2267	6392.458246
2268	6392.553241
2269	6392.553259
2270	6392.553270
2271	6392.553280
2272	6392.646767
2273	6392.654335
2274	6392.663417
2275	6392.698811
2276	6392.753096
2277	6392.753113
2278	6392.753124
2279	6392.856555
2280	6392.864085
2281	6392.873169
2282	6392.882254
2283	6392.981751
2284	6392.981769
2285	6392.981779
2286	6392.981790
2287	6393.084960
2288	6393.092533
2289	6393.101616
2290	6393.109188
2291	6393.209198
2292	6393.209215
2293	6393.209226
2294	6393.331963
2295	6393.341011
2296	6393.348577
2297	6393.357661
2298	6393.433592
2299	6393.433610
2300	6393.433621
2301	6393.433631
2302	6393.555618
2303	6393.563188
2304	6393.572272
2305	6393.672707
2306	6393.672725
2307	6393.672736
2308	6393.672747
2309	6393.727542
2310	6393.736588
2311	6393.744156
2312	6393.753240
2313	6393.811939
2314	6393.811956
2315	6393.811967
2316	6393.811978
2317	6393.937241
2318	6393.944812
2319	6393.953896
2320	6394.002305
2321	6394.033300
2322	6394.033317
2323	6394.033328
2324	6394.129021
2325	6394.136557
2326	6394.144123
2327	6394.153206
2328	6394.234757
2329	6394.234775
2330	6394.234785
2331	6394.234796
2332	6394.338432
2333	6394.345993
2334	6394.355080
2335	6394.364163
2336	6394.449402
2337	6394.449420
2338	6394.449431
2339	6394.527861
2340	6394.536908
2341	6394.544475
2342	6394.553559
2343	6394.657747
2344	6394.657765
2345	6394.657777
2346	6394.657787
2347	6394.750165
2348	6394.757739
2349	6394.766824
2350	6394.839635
2351	6394.839652
2352	6394.839663
2353	6394.839673
2354	6394.924226
2355	6394.933274
2356	6394.940841
2357	6394.949924
2358	6395.015562
2359	6395.015580
2360	6395.015591
2361	6395.015602
2362	6395.055552
2363	6395.063113
2364	6395.072197
2365	6395.081290
2366	6395.179998
2367	6395.180016
2368	6395.180027
2369	6395.261400
2370	6395.268938
2371	6395.276502
2372	6395.285587
2373	6395.378129
2374	6395.378147
2375	6395.378158
2376	6395.378169
2377	6395.430972
2378	6395.438542
2379	6395.447627
2380	6395.475363
2381	6395.503980
2382	6395.503997
2383	6395.504008
2384	6395.524512
2385	6395.532044
2386	6395.539622
2387	6395.548700
2388	6395.648775
2389	6395.648793
2390	6395.648804
2391	6395.648815
2392	6395.723631
2393	6395.731198
2394	6395.740281
2395	6395.749372
2396	6395.795466
2397	6395.795483
2398	6395.795494
2399	6395.836553
2400	6395.845600
2401	6395.853167
2402	6395.862251
2403	6395.940650
2404	6395.940668
2405	6395.940679
2406	6395.940690
2407	6396.003409
2408	6396.010984
2409	6396.020067
2410	6396.042781
2411	6396.123814
2412	6396.123831
2413	6396.123842
2414	6396.233094
2415	6396.240627
2416	6396.248198
2417	6396.257282
2418	6396.360199
2419	6396.360217
2420	6396.360228
2421	6396.360238
2422	6396.423391
2423	6396.430965
2424	6396.440051
2425	6396.449135
2426	6396.525300
2427	6396.525322
2428	6396.525333
2429	6396.579582
2430	6396.604235
2431	6396.611808
2432	6396.620890
2433	6396.651871
2434	6396.651888
2435	6396.651899
2436	6396.651909
2437	6396.677669
2438	6396.685236
2439	6396.694319
2440	6396.726821
2441	6396.727606
2442	6396.727622
2443	6396.727632
2444	6396.751238
2445	6396.760319
2446	6396.767887
2447	6396.778199
2448	6396.781516
2449	6396.790602
2450	6396.799684
2451	6396.807252
2452	6396.858036
2453	6396.858053
2454	6396.858064
2455	6396.916553
2456	6396.922574
2457	6396.931659
2458	6396.939235
2459	6396.992561
2460	6396.992579
2461	6396.992590
2462	6396.992601
2463	6397.035547
2464	6397.043106
2465	6397.052196
2466	6397.059769
2467	6397.156111
2468	6397.156129
2469	6397.156140
2470	6397.272246
2471	6397.278267
2472	6397.287351
2473	6397.296451
2474	6397.371398
2475	6397.371417
2476	6397.371443
2477	6397.371455
2478	6397.484017
2479	6397.491584
2480	6397.500665
2481	6397.508238
2482	6397.589096
2483	6397.589115
2484	6397.589126
2485	6397.662907
2486	6397.703624
2487	6397.712705
2488	6397.721789
2489	6397.828219
2490	6397.828237
2491	6397.828248
2492	6397.828258
2493	6397.927835
2494	6397.935402
2495	6397.944482
2496	6397.952056
2497	6398.037449
2498	6398.037468
2499	6398.037480
2500	6398.169123
2501	6398.175143
2502	6398.184225
2503	6398.193309
2504	6398.302308
2505	6398.302326
2506	6398.302337
2507	6398.302348
2508	6398.426370
2509	6398.433936
2510	6398.443022
2511	6398.450592
2512	6398.532866
2513	6398.532884
2514	6398.532894
2515	6398.627629
2516	6398.633649
2517	6398.642731
2518	6398.651817
2519	6398.757938
2520	6398.757955
2521	6398.757966
2522	6398.757977
2523	6398.846030
2524	6398.853602
2525	6398.862687
2526	6398.870255
2527	6398.965673
2528	6398.965691
2529	6398.965702
2530	6398.965712
2531	6399.064430
2532	6399.073507
2533	6399.082590
2534	6399.183201
2535	6399.183218
2536	6399.183229
2537	6399.183240
2538	6399.274771
2539	6399.282343
2540	6399.291428
2541	6399.298996
2542	6399.354749
2543	6399.354766
2544	6399.354777
2545	6399.354788
2546	6399.483943
2547	6399.493025
2548	6399.502108
2549	6399.566363
2550	6399.566382
2551	6399.566393
2552	6399.566404
2553	6399.635802
2554	6399.643374
2555	6399.652458
2556	6399.661541
2557	6399.769742
2558	6399.769773
2559	6399.769784
2560	6399.769796
2561	6399.880422
2562	6399.887983
2563	6399.897065
2564	6399.948990
2565	6399.950852
2566	6399.950868
2567	6399.950879
2568	6400.009657
2569	6400.017194
2570	6400.026275
2571	6400.035360
2572	6400.123068
2573	6400.123085
2574	6400.123096
2575	6400.123107
2576	6400.221054
2577	6400.228626
2578	6400.237711
2579	6400.245283
2580	6400.299456
2581	6400.299473
2582	6400.299484
2583	6400.332551
2584	6400.341600
2585	6400.349168
2586	6400.358251
2587	6400.389223
2588	6400.389251
2589	6400.389269
2590	6400.389280
2591	6400.415029
2592	6400.422596
2593	6400.431683
2594	6400.443230
2595	6400.463795
2596	6400.463812
2597	6400.463822
2598	6400.485466
2599	6400.493003
2600	6400.500568
2601	6400.589464
2602	6400.589481
2603	6400.589492
2604	6400.589503
2605	6400.672553
2606	6400.681601
2607	6400.689168
2608	6400.698251
2609	6400.797702
2610	6400.797720
2611	6400.797731
2612	6400.797742
2613	6400.922739
2614	6400.931820
2615	6400.939391
2616	6400.948474
2617	6400.994149
2618	6400.994167
2619	6400.994178
2620	6401.036555
2621	6401.045602
2622	6401.053170
2623	6401.062254
2624	6401.146511
2625	6401.146529
2626	6401.146541
2627	6401.146551
2628	6401.283196
2629	6401.290760
2630	6401.299841
2631	6401.379908
2632	6401.379925
2633	6401.379936
2634	6401.379947
2635	6401.509473
2636	6401.518517
2637	6401.526083
2638	6401.535171
2639	6401.578422
2640	6401.578439
2641	6401.578451
2642	6401.578462
2643	6401.643549
2644	6401.651115
2645	6401.660199
2646	6401.669290
2647	6401.759512
2648	6401.759529
2649	6401.759540
2650	6401.849695
2651	6401.858740
2652	6401.866308
2653	6401.875393
2654	6401.935635
2655	6401.935653
2656	6401.935664
2657	6401.935675
2658	6401.975555
2659	6401.983121
2660	6401.992204
2661	6402.001291
2662	6402.026264
2663	6402.026281
2664	6402.026292
2665	6402.047638
2666	6402.056679
2667	6402.064257
2668	6402.086970
2669	6402.113222
2670	6402.113239
2671	6402.113250
2672	6402.168551
2673	6402.176080
2674	6402.183656
2675	6402.192738
2676	6402.286518
2677	6402.286535
2678	6402.286547
2679	6402.286557
2680	6402.366149
2681	6402.375236
2682	6402.382807
2683	6402.391894
2684	6402.461789
2685	6402.461807
2686	6402.461818
2687	6402.548336
2688	6402.555867
2689	6402.563441
2690	6402.572524
2691	6402.642461
2692	6402.642479
2693	6402.642490
2694	6402.642500
2695	6402.770023
2696	6402.777595
2697	6402.786680
2698	6402.795765
2699	6402.853756
2700	6402.853774
2701	6402.853786
2702	6402.985298
2703	6402.992823
2704	6403.000397
2705	6403.009481
2706	6403.043367
2707	6403.043386
2708	6403.043397
2709	6403.043407
2710	6403.118027
2711	6403.125599
2712	6403.134683
2713	6403.143768
2714	6403.240178
2715	6403.240195
2716	6403.240206
2717	6403.332237
2718	6403.339772
2719	6403.347341
2720	6403.356426
2721	6403.448975
2722	6403.448996
2723	6403.449008
2724	6403.449018
2725	6403.533987
2726	6403.541553
2727	6403.550636
2728	6403.559700
2729	6403.647974
2730	6403.647991
2731	6403.648002
2732	6403.739052
2733	6403.748098
2734	6403.755668
2735	6403.764751
2736	6403.866365
2737	6403.866382
2738	6403.866394
2739	6403.866404
2740	6403.995613
2741	6404.003186
2742	6404.012269
2743	6404.093140
2744	6404.121649
2745	6404.121665
2746	6404.121676
2747	6404.224555
2748	6404.232086
2749	6404.239665
2750	6404.248743
2751	6404.358569
2752	6404.358588
2753	6404.358599
2754	6404.358610
2755	6404.476538
2756	6404.484103
2757	6404.493186
2758	6404.502278
2759	6404.600982
2760	6404.601002
2761	6404.601013
2762	6404.720551
2763	6404.728082
2764	6404.735658
2765	6404.744741
2766	6404.811897
2767	6404.811914
2768	6404.811926
2769	6404.811936
2770	6404.924393
2771	6404.931961
2772	6404.941044
2773	6404.950132
2774	6405.052562
2775	6405.052580
2776	6405.052591
2777	6405.152607
2778	6405.161653
2779	6405.169220
2780	6405.178304
2781	6405.268343
2782	6405.268361
2783	6405.268372
2784	6405.268382
2785	6405.333177
2786	6405.340744
2787	6405.349826
2788	6405.358915
2789	6405.435589
2790	6405.435606
2791	6405.435617
2792	6405.518560
2793	6405.527607
2794	6405.535175
2795	6405.544259
2796	6405.606436
2797	6405.606453
2798	6405.606465
2799	6405.606475
2800	6405.639547
2801	6405.647109
2802	6405.656192
2803	6405.665281
2804	6405.744352
2805	6405.744369
2806	6405.744380
2807	6405.812551
2808	6405.820084
2809	6405.827660
2810	6405.836741
2811	6405.894160
2812	6405.894178
2813	6405.894188
2814	6405.894199
2815	6405.957142
2816	6405.964709
2817	6405.973791
2818	6405.982880
2819	6406.040002
2820	6406.040019
2821	6406.040030
2822	6406.160765
2823	6406.168296
2824	6406.175870
2825	6406.184953
2826	6406.258974
2827	6406.258993
2828	6406.259004
2829	6406.259015
2830	6406.344016
2831	6406.351584
2832	6406.360666
2833	6406.369755
2834	6406.441404
2835	6406.441421
2836	6406.441432
2837	6406.563280
2838	6406.572323
2839	6406.579894
2840	6406.588974
2841	6406.668311
2842	6406.668329
2843	6406.668340
2844	6406.668350
2845	6406.767066
2846	6406.774629
2847	6406.783714
2848	6406.792802
2849	6406.881201
2850	6406.881218
2851	6406.881229
2852	6406.987969
2853	6406.997015
2854	6407.004585
2855	6407.013666
2856	6407.115704
2857	6407.115726
2858	6407.115738
2859	6407.115748
2860	6407.167882
2861	6407.175448
2862	6407.184530
2863	6407.298363
2864	6407.298383
2865	6407.298395
2866	6407.298408
2867	6407.423582
2868	6407.432611
2869	6407.440193
2870	6407.449275
2871	6407.532088
2872	6407.532107
2873	6407.532118
2874	6407.532128
2875	6407.650517
2876	6407.658092
2877	6407.667178
2878	6407.767888
2879	6407.767907
2880	6407.767918
2881	6407.767928
2882	6407.834573
2883	6407.843621
2884	6407.851188
2885	6407.860271
2886	6407.964093
2887	6407.964110
2888	6407.964121
2889	6407.964132
2890	6408.045852
2891	6408.053426
2892	6408.062509
2893	6408.143415
2894	6408.143432
2895	6408.143444
2896	6408.143454
2897	6408.234151
2898	6408.243199
2899	6408.250767
2900	6408.259851
2901	6408.352505
2902	6408.352525
2903	6408.352536
2904	6408.352546
2905	6408.443551
2906	6408.451117
2907	6408.460199
2908	6408.469285
2909	6408.573389
2910	6408.573406
2911	6408.573417
2912	6408.684939
2913	6408.693987
2914	6408.701554
2915	6408.710638
2916	6408.811680
2917	6408.811701
2918	6408.811712
2919	6408.811723
2920	6408.912979
2921	6408.920546
2922	6408.929629
2923	6408.938716
2924	6409.029694
2925	6409.029711
2926	6409.029722
2927	6409.140834
2928	6409.149879
2929	6409.157448
2930	6409.166532
2931	6409.252567
2932	6409.252584
2933	6409.252596
2934	6409.252606
2935	6409.320944
2936	6409.328511
2937	6409.337593
2938	6409.346682
2939	6409.422968
2940	6409.422986
2941	6409.422997
2942	6409.499065
2943	6409.508106
2944	6409.515675
2945	6409.524757
2946	6409.622878
2947	6409.622895
2948	6409.622906
2949	6409.622917
2950	6409.710043
2951	6409.717617
2952	6409.726700
2953	6409.802328
2954	6409.802345
2955	6409.802356
2956	6409.802367
2957	6409.932220
2958	6409.941268
2959	6409.948833
2960	6409.957918
2961	6410.048572
2962	6410.048589
2963	6410.048600
2964	6410.048611
2965	6410.109789
2966	6410.117364
2967	6410.126446
2968	6410.204166
2969	6410.204183
2970	6410.204194
2971	6410.204205
2972	6410.324080
2973	6410.333127
2974	6410.340695
2975	6410.349777
2976	6410.416432
2977	6410.416450
2978	6410.416461
2979	6410.416472
2980	6410.527776
2981	6410.535352
2982	6410.544434
2983	6410.581287
2984	6410.636154
2985	6410.636171
2986	6410.636182
2987	6410.748552
2988	6410.756084
2989	6410.763658
2990	6410.772741
2991	6410.842989
2992	6410.843006
2993	6410.843017
2994	6410.843028
2995	6410.874028
2996	6410.881601
2997	6410.890689
2998	6410.899767
2999	6411.007819
3000	6411.007836
3001	6411.007847
3002	6411.131552
3003	6411.139081
3004	6411.146653
3005	6411.155740
3006	6411.200673
3007	6411.200690
3008	6411.200702
3009	6411.200712
3010	6411.303771
3011	6411.311336
3012	6411.320418
3013	6411.329508
3014	6411.365621
3015	6411.365638
3016	6411.365649
3017	6411.416553
3018	6411.425599
3019	6411.433168
3020	6411.442251
3021	6411.525237
3022	6411.525257
3023	6411.525269
3024	6411.525280
3025	6411.626800
3026	6411.634361
3027	6411.643446
3028	6411.695093
3029	6411.695111
3030	6411.695123
3031	6411.695134
3032	6411.809700
3033	6411.818741
3034	6411.826308
3035	6411.835394
3036	6411.921141
3037	6411.921160
3038	6411.921172
3039	6411.921183
3040	6412.059247
3041	6412.066818
3042	6412.075904
3043	6412.169486
3044	6412.169503
3045	6412.169515
3046	6412.169525
3047	6412.251671
3048	6412.260715
3049	6412.268284
3050	6412.277366
3051	6412.379046
3052	6412.379064
3053	6412.379081
3054	6412.379102
3055	6412.444097
3056	6412.451670
3057	6412.460752
3058	6412.508590
3059	6412.508607
3060	6412.508618
3061	6412.508628
3062	6412.573631
3063	6412.582678
3064	6412.590248
3065	6412.599331
3066	6412.683274
3067	6412.683293
3068	6412.683304
3069	6412.683314
3070	6412.711546
3071	6412.719113
3072	6412.728194
3073	6412.737280
3074	6412.843054
3075	6412.843072
3076	6412.843083
3077	6412.972397
3078	6412.981444
3079	6412.989011
3080	6412.998094
3081	6413.078006
3082	6413.078025
3083	6413.078037
3084	6413.078047
3085	6413.201904
3086	6413.209478
3087	6413.218561
3088	6413.282801
3089	6413.329011
3090	6413.329028
3091	6413.329039
3092	6413.373445
3093	6413.380977
3094	6413.388552
3095	6413.397635
3096	6413.487263
3097	6413.487281
3098	6413.487292
3099	6413.487303
3100	6413.558881
3101	6413.566452
3102	6413.575537
3103	6413.584624
3104	6413.659868
3105	6413.659885
3106	6413.659896
3107	6413.785079
3108	6413.792608
3109	6413.800182
3110	6413.809267
3111	6413.905958
3112	6413.905976
3113	6413.905988
3114	6413.905998
3115	6414.014313
3116	6414.021875
3117	6414.030961
3118	6414.040050
3119	6414.130506
3120	6414.130523
3121	6414.130534
3122	6414.232234
3123	6414.241282
3124	6414.248848
3125	6414.257933
3126	6414.360749
3127	6414.360767
3128	6414.360778
3129	6414.360789
3130	6414.494233
3131	6414.501807
3132	6414.510892
3133	6414.538434
3134	6414.605185
3135	6414.605201
3136	6414.605212
3137	6414.675207
3138	6414.682737
3139	6414.690313
3140	6414.699395
3141	6414.765075
3142	6414.765093
3143	6414.765104
3144	6414.765115
3145	6414.892288
3146	6414.899842
3147	6414.908924
3148	6414.918016
3149	6414.997166
3150	6414.997184
3151	6414.997195
3152	6415.090410
3153	6415.097930
3154	6415.105507
3155	6415.114590
3156	6415.223051
3157	6415.223082
3158	6415.223095
3159	6415.223106
3160	6415.288042
3161	6415.295603
3162	6415.304692
3163	6415.313777
3164	6415.385981
3165	6415.386001
3166	6415.386012
3167	6415.460552
3168	6415.468081
3169	6415.475656
3170	6415.484737
3171	6415.575253
3172	6415.575284
3173	6415.575296
3174	6415.575308
3175	6415.652001
3176	6415.659560
3177	6415.668642
3178	6415.677730
3179	6415.761849
3180	6415.761867
3181	6415.761878
3182	6415.877137
3183	6415.886177
3184	6415.893744
3185	6415.902830
3186	6416.008588
3187	6416.008631
3188	6416.008643
3189	6416.008655
3190	6416.098170
3191	6416.105735
3192	6416.114838
3193	6416.217014
3194	6416.217043
3195	6416.217056
3196	6416.217066
3197	6416.295216
3198	6416.304265
3199	6416.311827
3200	6416.320912
3201	6416.365064
3202	6416.365082
3203	6416.365093
3204	6416.365103
3205	6416.494807
3206	6416.502368
3207	6416.511453
3208	6416.529542
3209	6416.554798
3210	6416.554816
3211	6416.554827
3212	6416.608523
3213	6416.616055
3214	6416.623626
3215	6416.632709
3216	6416.736376
3217	6416.736408
3218	6416.736420
3219	6416.736431
3220	6416.837631
3221	6416.845196
3222	6416.854286
3223	6416.863365
3224	6416.906618
3225	6416.906636
3226	6416.906647
3227	6416.948559
3228	6416.957606
3229	6416.965174
3230	6416.974255
3231	6417.022389
3232	6417.022419
3233	6417.022430
3234	6417.022443
3235	6417.079559
3236	6417.087121
3237	6417.096203
3238	6417.105291
3239	6417.182988
3240	6417.183008
3241	6417.183020
3242	6417.271033
3243	6417.280084
3244	6417.287648
3245	6417.296756
3246	6417.363510
3247	6417.363530
3248	6417.363542
3249	6417.363553
3250	6417.477246
3251	6417.484812
3252	6417.493893
3253	6417.560969
3254	6417.560992
3255	6417.561004
3256	6417.561014
3257	6417.674398
3258	6417.683440
3259	6417.691009
3260	6417.700091
3261	6417.762020
3262	6417.762038
3263	6417.762049
3264	6417.762059
3265	6417.811528
3266	6417.819103
3267	6417.828185
3268	6417.909883
3269	6417.909900
3270	6417.909912
3271	6417.909922
3272	6418.015999
3273	6418.025045
3274	6418.032613
3275	6418.041698
3276	6418.119780
3277	6418.119799
3278	6418.119810
3279	6418.119821
3280	6418.147546
3281	6418.155112
3282	6418.164194
3283	6418.173280
3284	6418.271794
3285	6418.271811
3286	6418.271823
3287	6418.394561
3288	6418.403609
3289	6418.411177
3290	6418.420260
3291	6418.501043
3292	6418.501060
3293	6418.501072
3294	6418.501082
3295	6418.607258
3296	6418.614835
3297	6418.623913
3298	6418.714379
3299	6418.714397
3300	6418.714409
3301	6418.714419
3302	6418.808619
3303	6418.817667
3304	6418.825235
3305	6418.834319
3306	6418.893983
3307	6418.894001
3308	6418.894012
3309	6418.894023
3310	6418.939551
3311	6418.947114
3312	6418.956197
3313	6418.965291
3314	6418.986651
3315	6418.986668
3316	6418.986679
3317	6419.008645
3318	6419.016178
3319	6419.023753
3320	6419.108866
3321	6419.108883
3322	6419.108895
3323	6419.108905
3324	6419.210025
3325	6419.219112
3326	6419.226683
3327	6419.235768
3328	6419.271133
3329	6419.271150
3330	6419.271161
3331	6419.332550
3332	6419.364514
3333	6419.373595
3334	6419.381168
3335	6419.489022
3336	6419.489040
3337	6419.489051
3338	6419.489062
3339	6419.529287
3340	6419.538342
3341	6419.545901
3342	6419.554991
3343	6419.618014
3344	6419.618031
3345	6419.618042
3346	6419.618053
3347	6419.650581
3348	6419.658148
3349	6419.667234
3350	6419.762378
3351	6419.775233
3352	6419.775250
3353	6419.775262
3354	6419.868555
3355	6419.876084
3356	6419.885169
3357	6419.894252
3358	6420.001004
3359	6420.001022
3360	6420.001033
3361	6420.001044
3362	6420.122190
3363	6420.129768
3364	6420.138848
3365	6420.146421
3366	6420.251295
3367	6420.251313
3368	6420.251324
3369	6420.280552
3370	6420.288083
3371	6420.295658
3372	6420.304745
3373	6420.365748
3374	6420.365766
3375	6420.365777
3376	6420.365787
3377	6420.389219
3378	6420.396783
3379	6420.405866
3380	6420.414957
3381	6420.493582
3382	6420.493599
3383	6420.493610
3384	6420.543802
3385	6420.551336
3386	6420.558907
3387	6420.567990
3388	6420.642172
3389	6420.642190
3390	6420.642201
3391	6420.642211
3392	6420.678489
3393	6420.686063
3394	6420.695149
3395	6420.704237
3396	6420.771917
3397	6420.771935
3398	6420.771946
3399	6420.906412
3400	6420.913941
3401	6420.921516
3402	6420.930603
3403	6420.949301
3404	6420.949317
3405	6420.953306
3406	6420.960880
3407	6420.975264
3408	6420.982830
3409	6421.053648
3410	6421.053665
3411	6421.053676
3412	6421.053687
3413	6421.095549
3414	6421.104634
3415	6421.113714
3416	6421.179413
3417	6421.179431
3418	6421.179442
3419	6421.179452
3420	6421.210022
3421	6421.217597
3422	6421.226680
3423	6421.234247
3424	6421.265383
3425	6421.265400
3426	6421.265411
3427	6421.324551
3428	6421.330577
3429	6421.339661
3430	6421.348740
3431	6421.391266
3432	6421.391284
3433	6421.391295
3434	6421.391305
3435	6421.445054
3436	6421.452627
3437	6421.461711
3438	6421.490647
3439	6421.490665
3440	6421.490691
3441	6421.491992
3442	6421.513973
3443	6421.521538
3444	6421.530624
3445	6421.560913
3446	6421.560930
3447	6421.560941
3448	6421.560950
3449	6421.585880
3450	6421.594967
3451	6421.602537
3452	6421.682929
3453	6421.682947
3454	6421.682958
3455	6421.682970
3456	6421.768862
3457	6421.777943
3458	6421.785512
3459	6421.794595
3460	6421.899562
3461	6421.899579
3462	6421.899591
3463	6422.025722
3464	6422.033253
3465	6422.042338
3466	6422.049911
3467	6422.155832
3468	6422.155850
3469	6422.155861
3470	6422.155871
3471	6422.286028
3472	6422.295116
3473	6422.302685
3474	6422.311773
3475	6422.413306
3476	6422.413325
3477	6422.413336
3478	6422.413346
3479	6422.512243
3480	6422.519808
3481	6422.528890
3482	6422.543850
3483	6422.553624
3484	6422.553640
3485	6422.559171
3486	6422.575106
3487	6422.582643
3488	6422.674558
3489	6422.674576
3490	6422.674587
3491	6422.674597
3492	6422.750132
3493	6422.759144
3494	6422.768265
3495	6422.775834
3496	6422.883672
3497	6422.883689
3498	6422.883700
3499	6422.883711
3500	6422.947961
3501	6422.957032
3502	6422.964608
3503	6423.075521
3504	6423.075542
3505	6423.075554
3506	6423.075565
3507	6423.153673
3508	6423.162720
3509	6423.171805
3510	6423.179376
3511	6423.256964
3512	6423.256982
3513	6423.256993
3514	6423.257004
3515	6423.320551
3516	6423.329637
3517	6423.337200
3518	6423.356085
3519	6423.393763
3520	6423.393780
3521	6423.393791
3522	6423.393802
3523	6423.442545
3524	6423.451653
3525	6423.459221
3526	6423.561232
3527	6423.561262
3528	6423.561274
3529	6423.561285
3530	6423.661227
3531	6423.670269
3532	6423.677844
3533	6423.686928
3534	6423.770950
3535	6423.770967
3536	6423.770978
3537	6423.770988
3538	6423.834776
3539	6423.843855
3540	6423.851423
3541	6423.916064
3542	6423.916081
3543	6423.916092
3544	6423.916102
3545	6424.023161
3546	6424.032245
3547	6424.039822
3548	6424.048900
3549	6424.125577
3550	6424.125594
3551	6424.125605
3552	6424.125616
3553	6424.196594
3554	6424.205677
3555	6424.213244
3556	6424.286021
3557	6424.286038
3558	6424.286050
3559	6424.286060
3560	6424.405618
3561	6424.414704
3562	6424.422274
3563	6424.431361
3564	6424.533967
3565	6424.533984
3566	6424.533995
3567	6424.667046
3568	6424.673062
3569	6424.682144
3570	6424.689714
3571	6424.771696
3572	6424.771714
3573	6424.771725
3574	6424.771736
3575	6424.863654
3576	6424.872738
3577	6424.881820
3578	6424.889397
3579	6424.974458
3580	6424.974476
3581	6424.974487
3582	6424.974497
3583	6425.005059
3584	6425.014140
3585	6425.021713
3586	6425.040827
3587	6425.092327
3588	6425.092343
3589	6425.092354
3590	6425.120550
3591	6425.128081
3592	6425.137166
3593	6425.144739
3594	6425.215912
3595	6425.215929
3596	6425.215941
3597	6425.215951
3598	6425.258027
3599	6425.267111
3600	6425.274684
3601	6425.283773
3602	6425.323019
3603	6425.323036
3604	6425.323047
3605	6425.423250
3606	6425.430780
3607	6425.438351
3608	6425.447438
3609	6425.549755
3610	6425.549773
3611	6425.549784
3612	6425.549795
3613	6425.651236
3614	6425.658797
3615	6425.667886
3616	6425.676972
3617	6425.781426
3618	6425.781449
3619	6425.781461
3620	6425.835660
3621	6425.844706
3622	6425.852273
3623	6425.861355
3624	6425.969610
3625	6425.969628
3626	6425.969639
3627	6425.969649
3628	6426.025784
3629	6426.033350
3630	6426.042434
3631	6426.051522
3632	6426.158163
3633	6426.158180
3634	6426.158190
3635	6426.239987
3636	6426.249032
3637	6426.256601
3638	6426.265684
3639	6426.339816
3640	6426.339851
3641	6426.339864
3642	6426.339875
3643	6426.422865
3644	6426.430434
3645	6426.439518
3646	6426.461285
3647	6426.546780
3648	6426.546804
3649	6426.546817
3650	6426.546828
3651	6426.680647
3652	6426.688209
3653	6426.697296
3654	6426.802849
3655	6426.802869
3656	6426.802881
3657	6426.802891
3658	6426.921065
3659	6426.928637
3660	6426.937721
3661	6426.946805
3662	6427.046912
3663	6427.046930
3664	6427.046941
3665	6427.046953
3666	6427.166539
3667	6427.174103
3668	6427.183189
3669	6427.262158
3670	6427.262175
3671	6427.262186
3672	6427.262197
3673	6427.387940
3674	6427.395513
3675	6427.404599
3676	6427.413679
3677	6427.456395
3678	6427.456412
3679	6427.456423
3680	6427.456433
3681	6427.585839
3682	6427.593403
3683	6427.602486
3684	6427.638067
3685	6427.694180
3686	6427.694197
3687	6427.694209
3688	6427.779680
3689	6427.787215
3690	6427.796297
3691	6427.805385
3692	6427.907579
3693	6427.907597
3694	6427.907608
3695	6427.907618
3696	6428.017065
3697	6428.024634
3698	6428.033718
3699	6428.041291
3700	6428.131849
3701	6428.131867
3702	6428.131878
3703	6428.238683
3704	6428.247732
3705	6428.255300
3706	6428.264385
3707	6428.354193
3708	6428.354210
3709	6428.354221
3710	6428.354232
3711	6428.414359
3712	6428.421930
3713	6428.431016
3714	6428.478145
3715	6428.478162
3716	6428.478174
3717	6428.478184
3718	6428.576333
3719	6428.585380
3720	6428.592948
3721	6428.602033
3722	6428.673267
3723	6428.673285
3724	6428.673296
3725	6428.673306
3726	6428.808061
3727	6428.815640
3728	6428.824719
3729	6428.934708
3730	6428.934729
3731	6428.934740
3732	6428.934751
3733	6429.015089
3734	6429.024132
3735	6429.031702
3736	6429.040790
3737	6429.113150
3738	6429.113169
3739	6429.113180
3740	6429.113191
3741	6429.203838
3742	6429.211412
3743	6429.220494
3744	6429.288702
3745	6429.324891
3746	6429.324909
3747	6429.324919
3748	6429.375920
3749	6429.383459
3750	6429.391024
3751	6429.400170
3752	6429.507174
3753	6429.507195
3754	6429.507206
3755	6429.507217
3756	6429.638355
3757	6429.645917
3758	6429.655006
3759	6429.701328
3760	6429.749557
3761	6429.749574
3762	6429.749585
3763	6429.799229
3764	6429.806765
3765	6429.814339
3766	6429.823420
3767	6429.929250
3768	6429.929268
3769	6429.929279
3770	6429.929289
3771	6430.067620
3772	6430.075191
3773	6430.084275
3774	6430.190973
3775	6430.190991
3776	6430.191003
3777	6430.191013
3778	6430.311911
3779	6430.320955
3780	6430.328523
3781	6430.337607
3782	6430.393083
3783	6430.393101
3784	6430.393112
3785	6430.393123
3786	6430.485465
3787	6430.493026
3788	6430.502109
3789	6430.579991
3790	6430.580011
3791	6430.580023
3792	6430.580033
3793	6430.706622
3794	6430.715666
3795	6430.723228
3796	6430.732311
3797	6430.783683
3798	6430.783711
3799	6430.783722
3800	6430.783733
3801	6430.885852
3802	6430.894927
3803	6430.902498
3804	6430.957860
3805	6430.992172
3806	6430.992190
3807	6430.992202
3808	6431.076558
3809	6431.084087
3810	6431.091663
3811	6431.100745
3812	6431.152400
3813	6431.152417
3814	6431.152428
3815	6431.152438
3816	6431.217763
3817	6431.226845
3818	6431.234412
3819	6431.243501
3820	6431.311818
3821	6431.311835
3822	6431.311846
3823	6431.388556
3824	6431.396081
3825	6431.403656
3826	6431.412739
3827	6431.502399
3828	6431.502419
3829	6431.502430
3830	6431.502440
3831	6431.575057
3832	6431.582620
3833	6431.591705
3834	6431.600792
3835	6431.622122
3836	6431.622140
3837	6431.622150
3838	6431.644111
3839	6431.653147
3840	6431.660730
3841	6431.719107
3842	6431.719125
3843	6431.719136
3844	6431.719146
3845	6431.770027
3846	6431.779121
3847	6431.786685
3848	6431.795769
3849	6431.848300
3850	6431.848318
3851	6431.848329
3852	6431.884554
3853	6431.892085
3854	6431.901169
3855	6431.908742
3856	6431.948460
3857	6431.948477
3858	6431.948488
3859	6431.948498
3860	6432.002443
3861	6432.011530
3862	6432.019102
3863	6432.036373
3864	6432.099553
3865	6432.099569
3866	6432.099581
3867	6432.138282
3868	6432.145764
3869	6432.154899
3870	6432.162470
3871	6432.259766
3872	6432.259784
3873	6432.259795
3874	6432.259805
3875	6432.311265
3876	6432.320348
3877	6432.327915
3878	6432.337003
3879	6432.362193
3880	6432.362210
3881	6432.362221
3882	6432.384010
3883	6432.393053
3884	6432.400629
3885	6432.468277
3886	6432.468295
3887	6432.468306
3888	6432.468316
3889	6432.564997
3890	6432.574045
3891	6432.581612
3892	6432.590697
3893	6432.665863
3894	6432.665880
3895	6432.665891
3896	6432.665901
3897	6432.758423
3898	6432.767509
3899	6432.775082
3900	6432.824396
3901	6432.868189
3902	6432.868206
3903	6432.868218
3904	6432.924553
3905	6432.932084
3906	6432.939639
3907	6432.948741
3908	6433.040549
3909	6433.040569
3910	6433.040581
3911	6433.040592
3912	6433.118029
3913	6433.127117
3914	6433.134686
3915	6433.143775
3916	6433.165796
3917	6433.165814
3918	6433.165824
3919	6433.186269
3920	6433.193805
3921	6433.201373
3922	6433.292778
3923	6433.292796
3924	6433.292807
3925	6433.292818
3926	6433.409020
3927	6433.418101
3928	6433.425669
3929	6433.434751
3930	6433.507314
3931	6433.507331
3932	6433.507342
3933	6433.633784
3934	6433.641314
3935	6433.650398
3936	6433.657972
3937	6433.728135
3938	6433.728153
3939	6433.728164
3940	6433.728174
3941	6433.780070
3942	6433.789147
3943	6433.796714
3944	6433.805803
3945	6433.900978
3946	6433.900995
3947	6433.901006
3948	6434.018146
3949	6434.027193
3950	6434.034761
3951	6434.043845
3952	6434.111540
3953	6434.111558
3954	6434.111569
3955	6434.111579
3956	6434.243781
3957	6434.251355
3958	6434.260438
3959	6434.275136
3960	6434.312603
3961	6434.312620
3962	6434.312631
3963	6434.356524
3964	6434.364083
3965	6434.371660
3966	6434.380744
3967	6434.398188
3968	6434.398205
3969	6434.403450
3970	6434.411025
3971	6434.420860
3972	6434.428426
3973	6434.513633
3974	6434.513650
3975	6434.513661
3976	6434.612970
3977	6434.620499
3978	6434.629585
3979	6434.638667
3980	6434.739254
3981	6434.739273
3982	6434.739284
3983	6434.739295
3984	6434.854222
3985	6434.861793
3986	6434.870876
3987	6434.878447
3988	6434.924565
3989	6434.924584
3990	6434.924595
3991	6434.964558
3992	6434.973602
3993	6434.981172
3994	6434.990256
3995	6435.038735
3996	6435.038752
3997	6435.038764
3998	6435.038774
3999	6435.142880
4000	6435.150450
4001	6435.159536
4002	6435.248805
4003	6435.248822
4004	6435.248833
4005	6435.248843
4006	6435.341413
4007	6435.350459
4008	6435.358028
4009	6435.367114
4010	6435.440949
4011	6435.440984
4012	6435.440997
4013	6435.441008
4014	6435.555558
4015	6435.563120
4016	6435.572201
4017	6435.581293
4018	6435.636234
4019	6435.636252
4020	6435.636263
4021	6435.668553
4022	6435.677600
4023	6435.685168
4024	6435.694251
4025	6435.747922
4026	6435.747940
4027	6435.747951
4028	6435.747961
4029	6435.799548
4030	6435.807114
4031	6435.816197
4032	6435.825284
4033	6435.894074
4034	6435.894091
4035	6435.894102
4036	6436.017996
4037	6436.027045
4038	6436.034611
4039	6436.043697
4040	6436.130695
4041	6436.130712
4042	6436.130723
4043	6436.130735
4044	6436.199547
4045	6436.207114
4046	6436.216197
4047	6436.225283
4048	6436.321650
4049	6436.321668
4050	6436.321678
4051	6436.392660
4052	6436.401706
4053	6436.409275
4054	6436.418358
4055	6436.516647
4056	6436.516679
4057	6436.516691
4058	6436.516702
4059	6436.610947
4060	6436.618518
4061	6436.627596
4062	6436.692587
4063	6436.694474
4064	6436.694491
4065	6436.694502
4066	6436.720550
4067	6436.729600
4068	6436.737164
4069	6436.746248
4070	6436.803593
4071	6436.803611
4072	6436.803622
4073	6436.803633
4074	6436.839342
4075	6436.839359
4076	6436.843714
4077	6436.859815
4078	6436.867353
4079	6436.876433
4080	6436.930750
4081	6436.930767
4082	6436.930778
4083	6436.930789
4084	6437.064037
4085	6437.071603
4086	6437.080686
4087	6437.155943
4088	6437.155960
4089	6437.155971
4090	6437.155981
4091	6437.257544
4092	6437.266629
4093	6437.274201
4094	6437.283287
4095	6437.374494
4096	6437.374513
4097	6437.374525
4098	6437.374536
4099	6437.515948
4100	6437.523515
4101	6437.532599
4102	6437.595707
4103	6437.595725
4104	6437.595736
4105	6437.595746
4106	6437.659127
4107	6437.668169
4108	6437.675745
4109	6437.684828
4110	6437.738727
4111	6437.738744
4112	6437.738756
4113	6437.738766
4114	6437.863279
4115	6437.870846
4116	6437.879932
4117	6437.978469
4118	6437.978487
4119	6437.978498
4120	6437.978508
4121	6438.084578
4122	6438.093626
4123	6438.101196
4124	6438.110278
4125	6438.184688
4126	6438.184706
4127	6438.184717
4128	6438.184727
4129	6438.298699
4130	6438.306265
4131	6438.315350
4132	6438.324436
4133	6438.400741
4134	6438.400758
4135	6438.400769
4136	6438.464032
4137	6438.471565
4138	6438.479143
4139	6438.488222
4140	6438.594639
4141	6438.594657
4142	6438.594668
4143	6438.594678
4144	6438.716437
4145	6438.724008
4146	6438.733093
4147	6438.742177
4148	6438.781483
4149	6438.781500
4150	6438.781511
4151	6438.788461
4152	6438.823931
4153	6438.831505
4154	6438.840602
4155	6438.913161
4156	6438.913179
4157	6438.913191
4158	6438.913201
4159	6438.961344
4160	6438.968907
4161	6438.977991
4162	6438.987080
4163	6439.040145
4164	6439.040162
4165	6439.040174
4166	6439.072574
4167	6439.081623
4168	6439.089188
4169	6439.098273
4170	6439.141070
4171	6439.141087
4172	6439.141098
4173	6439.141109
4174	6439.198314
4175	6439.205889
4176	6439.214978
4177	6439.241029
4178	6439.295516
4179	6439.295533
4180	6439.295544
4181	6439.320547
4182	6439.328078
4183	6439.335654
4184	6439.344736
4185	6439.417542
4186	6439.417561
4187	6439.417572
4188	6439.417582
4189	6439.510845
4190	6439.518424
4191	6439.527503
4192	6439.536590
4193	6439.619263
4194	6439.619280
4195	6439.619291
4196	6439.742202
4197	6439.751249
4198	6439.758818
4199	6439.767902
4200	6439.839611
4201	6439.839628
4202	6439.839640
4203	6439.839650
4204	6439.915646
4205	6439.923217
4206	6439.932301
4207	6440.001149
4208	6440.001167
4209	6440.001178
4210	6440.001188
4211	6440.102657
4212	6440.111705
4213	6440.119274
4214	6440.128356
4215	6440.235855
4216	6440.235873
4217	6440.235884
4218	6440.235895
4219	6440.366191
4220	6440.373757
4221	6440.382842
4222	6440.391935
4223	6440.494983
4224	6440.495000
4225	6440.495011
4226	6440.536548
4227	6440.544079
4228	6440.551654
4229	6440.560736
4230	6440.612739
4231	6440.612756
4232	6440.612767
4233	6440.612778
4234	6440.670026
4235	6440.677598
4236	6440.686684
4237	6440.695768
4238	6440.795427
4239	6440.795444
4240	6440.795456
4241	6440.795466
4242	6440.844549
4243	6440.852115
4244	6440.861198
4245	6440.921030
4246	6440.931692
4247	6440.931710
4248	6440.931723
4249	6440.955549
4250	6440.963111
4251	6440.972194
4252	6440.979771
4253	6441.037344
4254	6441.037362
4255	6441.037373
4256	6441.095228
4257	6441.095246
4258	6441.095256
4259	6441.095267
4260	6441.117181
4261	6441.126264
4262	6441.135350
4263	6441.142921
4264	6441.235543
4265	6441.235560
4266	6441.235571
4267	6441.235581
4268	6441.360335
4269	6441.369419
4270	6441.376992
4271	6441.422866
4272	6441.427293
4273	6441.427309
4274	6441.427320
4275	6441.475497
4276	6441.484545
4277	6441.493627
4278	6441.501194
4279	6441.610618
4280	6441.610644
4281	6441.610656
4282	6441.610667
4283	6441.691794
4284	6441.700877
4285	6441.708454
4286	6441.788229
4287	6441.807567
4288	6441.807584
4289	6441.807595
4290	6441.939417
4291	6441.948456
4292	6441.957545
4293	6441.965109
4294	6442.017137
4295	6442.017155
4296	6442.017166
4297	6442.017177
4298	6442.094886
4299	6442.103970
4300	6442.111543
4301	6442.171915
4302	6442.176414
4303	6442.176430
4304	6442.176441
4305	6442.253757
4306	6442.261293
4307	6442.270375
4308	6442.277942
4309	6442.367653
4310	6442.367670
4311	6442.367681
4312	6442.367691
4313	6442.419155
4314	6442.428239
4315	6442.435812
4316	6442.549760
4317	6442.549783
4318	6442.549795
4319	6442.549806
4320	6442.637549
4321	6442.646595
4322	6442.655681
4323	6442.663248
4324	6442.705004
4325	6442.705021
4326	6442.705032
4327	6442.705042
4328	6442.781403
4329	6442.790489
4330	6442.799573
4331	6442.878225
4332	6442.878243
4333	6442.878254
4334	6442.878264
4335	6443.005616
4336	6443.013191
4337	6443.022271
4338	6443.029839
4339	6443.115032
4340	6443.115049
4341	6443.115060
4342	6443.115071
4343	6443.192229
4344	6443.201314
4345	6443.210396
4346	6443.254955
4347	6443.322280
4348	6443.322296
4349	6443.322307
4350	6443.360550
4351	6443.368081
4352	6443.377166
4353	6443.384739
4354	6443.469264
4355	6443.469281
4356	6443.469292
4357	6443.469303
4358	6443.584133
4359	6443.593215
4360	6443.602299
4361	6443.609871
4362	6443.690952
4363	6443.690969
4364	6443.690980
4365	6443.756552
4366	6443.764082
4367	6443.771658
4368	6443.780740
4369	6443.814020
4370	6443.814037
4371	6443.814048
4372	6443.814058
4373	6443.835971
4374	6443.843536
4375	6443.852622
4376	6443.918880
4377	6443.918897
4378	6443.918908
4379	6443.918918
4380	6444.020062
4381	6444.029145
4382	6444.036711
4383	6444.045796
4384	6444.087358
4385	6444.087375
4386	6444.087386
4387	6444.087396
4388	6444.142568
4389	6444.150135
4390	6444.159220
4391	6444.258572
4392	6444.258589
4393	6444.258603
4394	6444.258614
4395	6444.387479
4396	6444.396526
4397	6444.404094
4398	6444.413178
4399	6444.460473
4400	6444.460491
4401	6444.460502
4402	6444.460513
4403	6444.587515
4404	6444.595090
4405	6444.604172
4406	6444.683673
4407	6444.683690
4408	6444.683701
4409	6444.683712
4410	6444.739744
4411	6444.748789
4412	6444.756357
4413	6444.765442
4414	6444.865934
4415	6444.865952
4416	6444.865963
4417	6444.865973
4418	6444.964809
4419	6444.972379
4420	6444.981463
4421	6445.089428
4422	6445.089446
4423	6445.089457
4424	6445.089467
4425	6445.188986
4426	6445.198032
4427	6445.205600
4428	6445.214686
4429	6445.308417
4430	6445.308435
4431	6445.308446
4432	6445.308456
4433	6445.371545
4434	6445.379112
4435	6445.388194
4436	6445.397281
4437	6445.459338
4438	6445.459355
4439	6445.459366
4440	6445.484553
4441	6445.493602
4442	6445.501168
4443	6445.510252
4444	6445.586277
4445	6445.586304
4446	6445.586317
4447	6445.586327
4448	6445.685285
4449	6445.692812
4450	6445.701941
4451	6445.773737
4452	6445.773754
4453	6445.773765
4454	6445.773775
4455	6445.826786
4456	6445.835832
4457	6445.843401
4458	6445.852482
4459	6445.926091
4460	6445.926108
4461	6445.926119
4462	6445.926129
4463	6446.053527
4464	6446.061102
4465	6446.070185
4466	6446.133711
4467	6446.133728
4468	6446.133739
4469	6446.133749
4470	6446.265810
4471	6446.274856
4472	6446.282424
4473	6446.291510
4474	6446.376127
4475	6446.376146
4476	6446.376157
4477	6446.376168
4478	6446.475332
4479	6446.482903
4480	6446.491988
4481	6446.525621
4482	6446.589307
4483	6446.589325
4484	6446.589336
4485	6446.709855
4486	6446.717384
4487	6446.724961
4488	6446.734040
4489	6446.815502
4490	6446.815520
4491	6446.815531
4492	6446.815541
4493	6446.842025
4494	6446.849598
4495	6446.858682
4496	6446.867766
4497	6446.908681
4498	6446.908699
4499	6446.908709
4500	6446.976362
4501	6446.983893
4502	6446.991467
4503	6447.000548
4504	6447.106026
4505	6447.106044
4506	6447.106055
4507	6447.106065
4508	6447.222414
4509	6447.229987
4510	6447.239072
4511	6447.248157
4512	6447.283107
4513	6447.283125
4514	6447.283135
4515	6447.356537
4516	6447.364066
4517	6447.371641
4518	6447.380723
4519	6447.472365
4520	6447.472383
4521	6447.472394
4522	6447.472406
4523	6447.588794
4524	6447.596367
4525	6447.605450
4526	6447.614538
4527	6447.686541
4528	6447.686558
4529	6447.686569
4530	6447.801376
4531	6447.810423
4532	6447.817991
4533	6447.827076
4534	6447.927527
4535	6447.927544
4536	6447.927555
4537	6447.927566
4538	6447.983605
4539	6447.991180
4540	6448.000262
4541	6448.092466
4542	6448.092485
4543	6448.092497
4544	6448.092507
4545	6448.215609
4546	6448.224653
4547	6448.232221
4548	6448.241305
4549	6448.286851
4550	6448.286869
4551	6448.286880
4552	6448.286890
4553	6448.343546
4554	6448.351107
4555	6448.360193
4556	6448.369286
4557	6448.457480
4558	6448.457497
4559	6448.457508
4560	6448.516547
4561	6448.524080
4562	6448.531654
4563	6448.540742
4564	6448.641141
4565	6448.641159
4566	6448.641170
4567	6448.641180
4568	6448.736552
4569	6448.744119
4570	6448.753202
4571	6448.762290
4572	6448.845440
4573	6448.845457
4574	6448.845468
4575	6448.926636
4576	6448.935686
4577	6448.943254
4578	6448.952336
4579	6448.986604
4580	6448.986622
4581	6448.986633
4582	6448.986643
4583	6449.101060
4584	6449.108633
4585	6449.117717
4586	6449.172526
4587	6449.172543
4588	6449.172554
4589	6449.172565
4590	6449.276330
4591	6449.285379
4592	6449.292946
4593	6449.302030
4594	6449.365719
4595	6449.365737
4596	6449.365748
4597	6449.365758
4598	6449.461435
4599	6449.469009
4600	6449.478092
4601	6449.515894
4602	6449.574681
4603	6449.574699
4604	6449.574710
4605	6449.629919
4606	6449.637453
4607	6449.645026
4608	6449.654110
4609	6449.681353
4610	6449.681371
4611	6449.681381
4612	6449.684390
4613	6449.703310
4614	6449.710870
4615	6449.719959
4616	6449.803372
4617	6449.803389
4618	6449.803400
4619	6449.803411
4620	6449.894515
4621	6449.903599
4622	6449.911166
4623	6450.001121
4624	6450.001139
4625	6450.001150
4626	6450.001160
4627	6450.135337
4628	6450.144419
4629	6450.151991
4630	6450.161075
4631	6450.230244
4632	6450.230261
4633	6450.230272
4634	6450.230282
4635	6450.283595
4636	6450.292676
4637	6450.300244
4638	6450.407921
4639	6450.407939
4640	6450.407950
4641	6450.407961
4642	6450.514166
4643	6450.523252
4644	6450.530823
4645	6450.539912
4646	6450.586980
4647	6450.586997
4648	6450.587008
4649	6450.587018
4650	6450.721239
4651	6450.730317
4652	6450.737884
4653	6450.830078
4654	6450.830095
4655	6450.830106
4656	6450.830117
4657	6450.964446
4658	6450.973492
4659	6450.981059
4660	6450.990145
4661	6451.092824
4662	6451.092852
4663	6451.092864
4664	6451.092875
4665	6451.152335
4666	6451.161419
4667	6451.168991
4668	6451.183535
4669	6451.204134
4670	6451.204151
4671	6451.204161
4672	6451.225803
4673	6451.233338
4674	6451.242421
4675	6451.249987
4676	6451.290210
4677	6451.290227
4678	6451.290239
4679	6451.392172
4680	6451.399703
4681	6451.408787
4682	6451.416361
4683	6451.504477
4684	6451.504494
4685	6451.504505
4686	6451.504515
4687	6451.602029
4688	6451.611115
4689	6451.620197
4690	6451.627774
4691	6451.694178
4692	6451.694196
4693	6451.694207
4694	6451.805233
4695	6451.812763
4696	6451.820337
4697	6451.829421
4698	6451.900268
4699	6451.900286
4700	6451.900297
4701	6451.900307
4702	6451.994352
4703	6452.001912
4704	6452.011001
4705	6452.020088
4706	6452.095219
4707	6452.095243
4708	6452.095254
4709	6452.164569
4710	6452.172088
4711	6452.179663
4712	6452.188722
4713	6452.285649
4714	6452.285684
4715	6452.285696
4716	6452.285708
4717	6452.325072
4718	6452.332639
4719	6452.341722
4720	6452.350809
4721	6452.421433
4722	6452.421469
4723	6452.421482
4724	6452.523631
4725	6452.532671
4726	6452.540241
4727	6452.549322
4728	6452.617693
4729	6452.617711
4730	6452.617723
4731	6452.617733
4732	6452.643545
4733	6452.651111
4734	6452.660193
4735	6452.669281
4736	6452.747608
4737	6452.747627
4738	6452.747638
4739	6452.808527
4740	6452.816058
4741	6452.823632
4742	6452.832715
4743	6452.886640
4744	6452.886657
4745	6452.886668
4746	6452.886678
4747	6453.003926
4748	6453.011503
4749	6453.020569
4750	6453.029659
4751	6453.120165
4752	6453.120184
4753	6453.120196
4754	6453.195591
4755	6453.203120
4756	6453.210694
4757	6453.219780
4758	6453.279179
4759	6453.279199
4760	6453.279211
4761	6453.279222
4762	6453.314018
4763	6453.321592
4764	6453.330679
4765	6453.339762
4766	6453.430382
4767	6453.430402
4768	6453.430413
4769	6453.484398
4770	6453.491928
4771	6453.499501
4772	6453.508584
4773	6453.612233
4774	6453.612263
4775	6453.612275
4776	6453.612286
4777	6453.690043
4778	6453.697608
4779	6453.706692
4780	6453.715783
4781	6453.783616
4782	6453.783647
4783	6453.783659
4784	6453.860566
4785	6453.868088
4786	6453.875664
4787	6453.884746
4788	6453.953820
4789	6453.953839
4790	6453.953850
4791	6453.953861
4792	6454.085538
4793	6454.093102
4794	6454.102185
4795	6454.111274
4796	6454.191914
4797	6454.191935
4798	6454.191947
4799	6454.294663
4800	6454.302191
4801	6454.309765
4802	6454.318849
4803	6454.409807
4804	6454.409827
4805	6454.409838
4806	6454.409849
4807	6454.509186
4808	6454.516749
4809	6454.525835
4810	6454.534924
4811	6454.639586
4812	6454.639619
4813	6454.639631
4814	6454.771382
4815	6454.778919
4816	6454.786483
4817	6454.795568
4818	6454.838896
4819	6454.838914
4820	6454.838925
4821	6454.838936
4822	6454.891544
4823	6454.899112
4824	6454.908194
4825	6454.917296
4826	6454.993511
4827	6454.993531
4828	6454.993543
4829	6455.071139
4830	6455.080187
4831	6455.087754
4832	6455.096837
4833	6455.176347
4834	6455.176365
4835	6455.176376
4836	6455.176387
4837	6455.283543
4838	6455.291109
4839	6455.300191
4840	6455.309280
4841	6455.408288
4842	6455.408305
4843	6455.408316
4844	6455.469246
4845	6455.476776
4846	6455.484351
4847	6455.493435
4848	6455.592406
4849	6455.592423
4850	6455.592434
4851	6455.592445
4852	6455.707934
4853	6455.715516
4854	6455.724593
4855	6455.733684
4856	6455.824630
4857	6455.824647
4858	6455.824658
4859	6455.880557
4860	6455.888084
4861	6455.895662
4862	6455.904744
4863	6456.010083
4864	6456.010114
4865	6456.010127
4866	6456.010138
4867	6456.086054
4868	6456.093627
4869	6456.102712
4870	6456.111795
4871	6456.215173
4872	6456.215190
4873	6456.215201
4874	6456.215211
4875	6456.352318
4876	6456.359864
4877	6456.368966
4878	6456.396863
4879	6456.396880
4880	6456.396891
4881	6456.399247
4882	6456.419683
4883	6456.427257
4884	6456.436401
4885	6456.506383
4886	6456.506400
4887	6456.506411
4888	6456.506422
4889	6456.598864
4890	6456.607943
4891	6456.615513
4892	6456.713124
4893	6456.713142
4894	6456.713153
4895	6456.713163
4896	6456.767461
4897	6456.776544
4898	6456.784117
4899	6456.793201
4900	6456.864377
4901	6456.864394
4902	6456.864405
4903	6456.864416
4904	6456.893053
4905	6456.902137
4906	6456.909710
4907	6456.957384
4908	6457.004243
4909	6457.004261
4910	6457.004273
4911	6457.120135
4912	6457.127668
4913	6457.135237
4914	6457.144320
4915	6457.254832
4916	6457.254850
4917	6457.254861
4918	6457.254871
4919	6457.366893
4920	6457.375977
4921	6457.383551
4922	6457.413835
4923	6457.469033
4924	6457.469050
4925	6457.469062
4926	6457.496544
4927	6457.504091
4928	6457.511655
4929	6457.520738
4930	6457.576795
4931	6457.576812
4932	6457.576824
4933	6457.576834
4934	6457.630029
4935	6457.639112
4936	6457.646686
4937	6457.655773
4938	6457.679718
4939	6457.679735
4940	6457.679746
4941	6457.702565
4942	6457.710097
4943	6457.717672
4944	6457.764091
4945	6457.764108
4946	6457.764119
4947	6457.764129
4948	6457.845547
4949	6457.854595
4950	6457.862162
4951	6457.871248
4952	6457.930799
4953	6457.930816
4954	6457.930827
4955	6457.930838
4956	6458.038418
4957	6458.047501
4958	6458.055084
4959	6458.070407
